[gd_resource type="TileSet" load_steps=2 format=2]

[ext_resource path="res://tilesets/tileset_background2.png" type="Texture" id=1]

[resource]
0/name = "Purple"
0/texture = ExtResource( 1 )
0/tex_offset = Vector2( 0, 0 )
0/modulate = Color( 1, 1, 1, 1 )
0/region = Rect2( 0, 0, 64, 16 )
0/tile_mode = 1
0/autotile/bitmask_mode = 1
0/autotile/bitmask_flags = [ Vector2( 0, 0 ), 511, Vector2( 1, 0 ), 511, Vector2( 2, 0 ), 511, Vector2( 3, 0 ), 511 ]
0/autotile/icon_coordinate = Vector2( 0, 0 )
0/autotile/tile_size = Vector2( 16, 16 )
0/autotile/spacing = 0
0/autotile/occluder_map = [  ]
0/autotile/navpoly_map = [  ]
0/autotile/priority_map = [  ]
0/autotile/z_index_map = [  ]
0/occluder_offset = Vector2( 0, 0 )
0/navigation_offset = Vector2( 0, 0 )
0/shapes = [  ]
0/z_index = 0
1/name = "Tiles"
1/texture = ExtResource( 1 )
1/tex_offset = Vector2( 0, 0 )
1/modulate = Color( 1, 1, 1, 1 )
1/region = Rect2( 0, 16, 352, 80 )
1/tile_mode = 1
1/autotile/bitmask_mode = 1
1/autotile/bitmask_flags = [ Vector2( 0, 0 ), 432, Vector2( 0, 1 ), 438, Vector2( 0, 2 ), 54, Vector2( 0, 3 ), 48, Vector2( 0, 4 ), 511, Vector2( 1, 0 ), 504, Vector2( 1, 1 ), 511, Vector2( 1, 2 ), 63, Vector2( 1, 3 ), 56, Vector2( 1, 4 ), 511, Vector2( 2, 0 ), 216, Vector2( 2, 1 ), 219, Vector2( 2, 2 ), 27, Vector2( 2, 3 ), 24, Vector2( 2, 4 ), 511, Vector2( 3, 0 ), 144, Vector2( 3, 1 ), 146, Vector2( 3, 2 ), 18, Vector2( 3, 3 ), 16, Vector2( 4, 0 ), 176, Vector2( 4, 1 ), 182, Vector2( 4, 2 ), 434, Vector2( 4, 3 ), 50, Vector2( 4, 4 ), 178, Vector2( 5, 0 ), 248, Vector2( 5, 1 ), 255, Vector2( 5, 2 ), 507, Vector2( 5, 3 ), 59, Vector2( 5, 4 ), 251, Vector2( 6, 0 ), 440, Vector2( 6, 1 ), 447, Vector2( 6, 2 ), 510, Vector2( 6, 3 ), 62, Vector2( 6, 4 ), 446, Vector2( 7, 0 ), 152, Vector2( 7, 1 ), 155, Vector2( 7, 2 ), 218, Vector2( 7, 3 ), 58, Vector2( 7, 4 ), 154, Vector2( 8, 0 ), 184, Vector2( 8, 1 ), 191, Vector2( 8, 2 ), 506, Vector2( 8, 3 ), 58, Vector2( 8, 4 ), 186, Vector2( 9, 0 ), 443, Vector2( 9, 1 ), 254, Vector2( 9, 2 ), 442, Vector2( 9, 3 ), 190, Vector2( 10, 2 ), 250, Vector2( 10, 3 ), 187, Vector2( 11, 0 ), 432, Vector2( 11, 1 ), 438, Vector2( 11, 2 ), 54, Vector2( 11, 3 ), 48, Vector2( 12, 0 ), 504, Vector2( 12, 1 ), 511, Vector2( 12, 2 ), 63, Vector2( 12, 3 ), 56, Vector2( 13, 0 ), 216, Vector2( 13, 1 ), 219, Vector2( 13, 2 ), 27, Vector2( 13, 3 ), 24, Vector2( 14, 0 ), 144, Vector2( 14, 1 ), 146, Vector2( 14, 2 ), 18, Vector2( 14, 3 ), 16, Vector2( 15, 0 ), 176, Vector2( 15, 1 ), 182, Vector2( 15, 2 ), 434, Vector2( 15, 3 ), 50, Vector2( 15, 4 ), 178, Vector2( 16, 0 ), 248, Vector2( 16, 1 ), 255, Vector2( 16, 2 ), 507, Vector2( 16, 3 ), 59, Vector2( 16, 4 ), 251, Vector2( 17, 0 ), 440, Vector2( 17, 1 ), 447, Vector2( 17, 2 ), 510, Vector2( 17, 3 ), 62, Vector2( 17, 4 ), 446, Vector2( 18, 0 ), 152, Vector2( 18, 1 ), 155, Vector2( 18, 2 ), 218, Vector2( 18, 3 ), 26, Vector2( 18, 4 ), 154, Vector2( 19, 0 ), 184, Vector2( 19, 1 ), 191, Vector2( 19, 2 ), 506, Vector2( 19, 3 ), 58, Vector2( 19, 4 ), 186, Vector2( 20, 0 ), 443, Vector2( 20, 1 ), 254, Vector2( 20, 2 ), 442, Vector2( 20, 3 ), 190, Vector2( 21, 2 ), 250, Vector2( 21, 3 ), 187 ]
1/autotile/icon_coordinate = Vector2( 0, 0 )
1/autotile/tile_size = Vector2( 16, 16 )
1/autotile/spacing = 0
1/autotile/occluder_map = [  ]
1/autotile/navpoly_map = [  ]
1/autotile/priority_map = [  ]
1/autotile/z_index_map = [  ]
1/occluder_offset = Vector2( 0, 0 )
1/navigation_offset = Vector2( 0, 0 )
1/shapes = [  ]
1/z_index = 0
2/name = "Dirt"
2/texture = ExtResource( 1 )
2/tex_offset = Vector2( 0, 0 )
2/modulate = Color( 1, 1, 1, 1 )
2/region = Rect2( 0, 96, 352, 80 )
2/tile_mode = 1
2/autotile/bitmask_mode = 1
2/autotile/bitmask_flags = [ Vector2( 0, 0 ), 432, Vector2( 0, 1 ), 438, Vector2( 0, 2 ), 54, Vector2( 0, 3 ), 48, Vector2( 0, 4 ), 511, Vector2( 1, 0 ), 504, Vector2( 1, 1 ), 511, Vector2( 1, 2 ), 63, Vector2( 1, 3 ), 56, Vector2( 1, 4 ), 511, Vector2( 2, 0 ), 216, Vector2( 2, 1 ), 219, Vector2( 2, 2 ), 27, Vector2( 2, 3 ), 24, Vector2( 2, 4 ), 511, Vector2( 3, 0 ), 144, Vector2( 3, 1 ), 146, Vector2( 3, 2 ), 18, Vector2( 3, 3 ), 16, Vector2( 4, 0 ), 176, Vector2( 4, 1 ), 182, Vector2( 4, 2 ), 434, Vector2( 4, 3 ), 50, Vector2( 4, 4 ), 178, Vector2( 5, 0 ), 248, Vector2( 5, 1 ), 255, Vector2( 5, 2 ), 507, Vector2( 5, 3 ), 59, Vector2( 5, 4 ), 251, Vector2( 6, 0 ), 440, Vector2( 6, 1 ), 447, Vector2( 6, 2 ), 510, Vector2( 6, 3 ), 62, Vector2( 6, 4 ), 446, Vector2( 7, 0 ), 152, Vector2( 7, 1 ), 155, Vector2( 7, 2 ), 218, Vector2( 7, 3 ), 26, Vector2( 7, 4 ), 154, Vector2( 8, 0 ), 184, Vector2( 8, 1 ), 191, Vector2( 8, 2 ), 506, Vector2( 8, 3 ), 58, Vector2( 8, 4 ), 186, Vector2( 9, 0 ), 443, Vector2( 9, 1 ), 254, Vector2( 9, 2 ), 442, Vector2( 9, 3 ), 190, Vector2( 10, 2 ), 250, Vector2( 10, 3 ), 187, Vector2( 11, 0 ), 432, Vector2( 11, 1 ), 438, Vector2( 11, 2 ), 54, Vector2( 11, 3 ), 48, Vector2( 12, 0 ), 504, Vector2( 12, 1 ), 511, Vector2( 12, 2 ), 63, Vector2( 12, 3 ), 56, Vector2( 13, 0 ), 216, Vector2( 13, 1 ), 219, Vector2( 13, 2 ), 27, Vector2( 13, 3 ), 24, Vector2( 14, 0 ), 144, Vector2( 14, 1 ), 146, Vector2( 14, 2 ), 18, Vector2( 14, 3 ), 16, Vector2( 15, 0 ), 176, Vector2( 15, 1 ), 182, Vector2( 15, 2 ), 434, Vector2( 15, 3 ), 50, Vector2( 15, 4 ), 178, Vector2( 16, 0 ), 248, Vector2( 16, 1 ), 255, Vector2( 16, 2 ), 507, Vector2( 16, 3 ), 59, Vector2( 16, 4 ), 251, Vector2( 17, 0 ), 440, Vector2( 17, 1 ), 447, Vector2( 17, 2 ), 510, Vector2( 17, 3 ), 62, Vector2( 17, 4 ), 446, Vector2( 18, 0 ), 152, Vector2( 18, 1 ), 155, Vector2( 18, 2 ), 218, Vector2( 18, 3 ), 26, Vector2( 18, 4 ), 154, Vector2( 19, 0 ), 184, Vector2( 19, 1 ), 191, Vector2( 19, 2 ), 506, Vector2( 19, 3 ), 58, Vector2( 19, 4 ), 186, Vector2( 20, 0 ), 443, Vector2( 20, 1 ), 254, Vector2( 20, 2 ), 442, Vector2( 20, 3 ), 190, Vector2( 21, 2 ), 250, Vector2( 21, 3 ), 187 ]
2/autotile/icon_coordinate = Vector2( 0, 0 )
2/autotile/tile_size = Vector2( 16, 16 )
2/autotile/spacing = 0
2/autotile/occluder_map = [  ]
2/autotile/navpoly_map = [  ]
2/autotile/priority_map = [  ]
2/autotile/z_index_map = [  ]
2/occluder_offset = Vector2( 0, 0 )
2/navigation_offset = Vector2( 0, 0 )
2/shapes = [  ]
2/z_index = 0
