[gd_scene load_steps=4 format=2]

[ext_resource path="res://tilesets/tileset_warning.tres" type="TileSet" id=1]
[ext_resource path="res://scripts/FlashWarning.gd" type="Script" id=2]

[sub_resource type="CanvasItemMaterial" id=1]
blend_mode = 1

[node name="FloorWarning" type="TileMap"]
modulate = Color( 1, 1, 1, 0 )
material = SubResource( 1 )
tile_set = ExtResource( 1 )
cell_size = Vector2( 16, 16 )
format = 1
script = ExtResource( 2 )
