[gd_scene load_steps=6 format=2]

[ext_resource path="res://shaders/lava_shader.tres" type="Material" id=1]
[ext_resource path="res://scripts/Lava.gd" type="Script" id=2]
[ext_resource path="res://sounds/lava/bubbling.ogg" type="AudioStream" id=3]
[ext_resource path="res://sounds/lava/moving.ogg" type="AudioStream" id=4]

[sub_resource type="CanvasItemMaterial" id=1]
blend_mode = 1

[node name="Lava" type="Polygon2D" groups=[
"lava",
]]
material = ExtResource( 1 )
z_index = 50
color = Color( 1, 0.631373, 0, 1 )
polygon = PoolVector2Array( 0, 0, 4096, 0, 4096, 1024, 0, 1024 )
script = ExtResource( 2 )

[node name="Area2D" type="Area2D" parent="." groups=[
"deadly",
]]
z_index = 50
collision_layer = 4
collision_mask = 4

[node name="CollisionPolygon2D" type="CollisionPolygon2D" parent="Area2D"]
visible = false

[node name="Glow" type="Polygon2D" parent="."]
material = SubResource( 1 )
polygon = PoolVector2Array( 0, 0, 0, -64, 32, -64, 32, 0 )
vertex_colors = PoolColorArray( 0.607843, 0.329412, 0, 1, 0, 0, 0, 1, 0, 0, 0, 1, 0.607843, 0.329412, 0, 1 )

[node name="Audio_Bubbling" type="AudioStreamPlayer2D" parent="."]
pause_mode = 2
position = Vector2( 240, 0 )
stream = ExtResource( 3 )
autoplay = true
max_distance = 320.0
bus = "SFX"

[node name="Audio_Move" type="AudioStreamPlayer2D" parent="."]
stream = ExtResource( 4 )
max_distance = 640.0
bus = "SFX"
