[gd_scene load_steps=9 format=2]

[ext_resource path="res://scripts/PhaseBlock.gd" type="Script" id=1]
[ext_resource path="res://sprites/phaseblock.png" type="Texture" id=2]
[ext_resource path="res://sprites/phaseblock_warning.png" type="Texture" id=3]
[ext_resource path="res://scripts/FlashWarning.gd" type="Script" id=4]
[ext_resource path="res://sounds/block_appear.ogg" type="AudioStream" id=5]
[ext_resource path="res://sounds/block_disappear.ogg" type="AudioStream" id=6]

[sub_resource type="CanvasItemMaterial" id=1]
blend_mode = 1

[sub_resource type="RectangleShape2D" id=2]
extents = Vector2( 8, 8 )

[node name="PhaseBlock" type="StaticBody2D" groups=[
"resetable",
]]
script = ExtResource( 1 )

[node name="Sprite" type="Sprite" parent="."]
position = Vector2( 8, 8 )
texture = ExtResource( 2 )
hframes = 13
frame = 12

[node name="Warning" type="Sprite" parent="." groups=[
"floor_indicator",
]]
visible = false
modulate = Color( 1, 1, 1, 0 )
material = SubResource( 1 )
texture = ExtResource( 3 )
offset = Vector2( 8, 0 )
script = ExtResource( 4 )

[node name="CollisionShape2D" type="CollisionShape2D" parent="."]
visible = false
position = Vector2( 8, 8 )
shape = SubResource( 2 )
disabled = true

[node name="Timer" type="Timer" parent="."]

[node name="Audio_Appear" type="AudioStreamPlayer2D" parent="."]
stream = ExtResource( 5 )
max_distance = 500.0
bus = "SFX"

[node name="Audio_Disappear" type="AudioStreamPlayer2D" parent="."]
stream = ExtResource( 6 )
max_distance = 500.0
bus = "SFX"
[connection signal="timeout" from="Timer" to="." method="_on_Timer_timeout"]
