[gd_scene load_steps=3 format=2]

[ext_resource path="res://sprites/effects/land_dust.png" type="Texture" id=1]
[ext_resource path="res://scripts/effects/LandDust.gd" type="Script" id=2]

[node name="LandDust" type="Sprite"]
texture = ExtResource( 1 )
offset = Vector2( 0, -2 )
hframes = 6
script = ExtResource( 2 )

[node name="Timer" type="Timer" parent="."]
wait_time = 0.1
autostart = true
[connection signal="timeout" from="Timer" to="." method="_on_Timer_timeout"]
