[gd_scene load_steps=13 format=2]

[ext_resource path="res://scripts/Gamemaster.gd" type="Script" id=1]
[ext_resource path="res://tilesets/tileset_background2.tres" type="TileSet" id=2]
[ext_resource path="res://tilesets/tileset_enhanced3.tres" type="TileSet" id=3]
[ext_resource path="res://scripts/Levelbuilder.gd" type="Script" id=4]
[ext_resource path="res://objects/Orb.tscn" type="PackedScene" id=5]
[ext_resource path="res://objects/Gate.tscn" type="PackedScene" id=6]
[ext_resource path="res://objects/Switch.tscn" type="PackedScene" id=7]
[ext_resource path="res://objects/Waterline.tscn" type="PackedScene" id=8]
[ext_resource path="res://objects/Trapdoor.tscn" type="PackedScene" id=9]
[ext_resource path="res://objects/Carl.tscn" type="PackedScene" id=10]
[ext_resource path="res://objects/NewLight.tscn" type="PackedScene" id=11]
[ext_resource path="res://music/Werq.ogg" type="AudioStream" id=12]

[node name="LevelD" type="Node2D"]
script = ExtResource( 1 )
path_player_spawn = NodePath("PlayerSpawn")
path_orb = NodePath("Orb")
path_geometry = NodePath("Foreground")
path_bgm = NodePath("AudioStreamPlayer_BGM")
level_slug = "D"

[node name="PlayerSpawn" type="Node2D" parent="."]
position = Vector2( 496, 116 )

[node name="Background" type="TileMap" parent="."]
tile_set = ExtResource( 2 )
cell_size = Vector2( 16, 16 )
format = 1
tile_data = PoolIntArray( 0, 0, 0, 1, 0, 0, 2, 0, 0, 3, 0, 0, 4, 0, 0, 5, 0, 0, 6, 0, 0, 7, 0, 0, 8, 0, 0, 9, 0, 0, 10, 0, 0, 11, 0, 0, 12, 0, 0, 13, 0, 0, 14, 0, 0, 15, 0, 0, 16, 0, 0, 17, 0, 0, 18, 0, 0, 19, 0, 0, 20, 0, 0, 21, 0, 0, 22, 0, 0, 23, 0, 0, 24, 0, 0, 25, 0, 0, 26, 0, 0, 27, 0, 0, 28, 0, 0, 29, 0, 0, 30, 0, 0, 31, 0, 0, 32, 0, 0, 33, 0, 0, 34, 0, 0, 35, 0, 0, 36, 0, 0, 37, 0, 0, 38, 0, 0, 39, 0, 0, 40, 0, 0, 41, 0, 0, 42, 0, 0, 43, 0, 0, 44, 0, 0, 45, 0, 0, 46, 0, 0, 47, 0, 0, 65536, 0, 0, 65537, 0, 0, 65538, 0, 1, 65539, 0, 0, 65540, 0, 0, 65541, 0, 1, 65542, 0, 0, 65543, 0, 0, 65544, 0, 1, 65545, 0, 3, 65546, 0, 2, 65547, 0, 3, 65548, 0, 0, 65549, 0, 1, 65550, 0, 2, 65551, 0, 2, 65552, 0, 0, 65553, 0, 2, 65554, 0, 0, 65555, 0, 1, 65556, 0, 1, 65557, 0, 2, 65558, 0, 3, 65559, 0, 3, 65560, 0, 0, 65561, 0, 2, 65562, 0, 1, 65563, 0, 3, 65564, 0, 2, 65565, 0, 3, 65566, 0, 0, 65567, 0, 2, 65568, 0, 1, 65569, 0, 2, 65570, 0, 2, 65571, 0, 1, 65572, 0, 0, 65573, 0, 2, 65574, 0, 0, 65575, 0, 0, 65576, 0, 0, 65577, 0, 1, 65578, 0, 0, 65579, 0, 0, 65580, 0, 1, 65581, 0, 0, 65582, 0, 3, 65583, 0, 0, 131072, 0, 0, 131073, 0, 0, 131074, 0, 1, 131075, 0, 2, 131076, 0, 3, 131077, 0, 0, 131078, 0, 2, 131079, 0, 3, 131080, 0, 3, 131081, 0, 1, 131082, 0, 1, 131083, 0, 3, 131084, 0, 2, 131085, 0, 0, 131086, 0, 3, 131087, 0, 1, 131088, 0, 1, 131089, 0, 3, 131090, 0, 3, 131091, 0, 2, 131092, 0, 0, 131093, 0, 3, 131094, 0, 2, 131095, 0, 1, 131096, 0, 2, 131097, 0, 1, 131098, 0, 0, 131099, 0, 3, 131100, 0, 0, 131101, 0, 1, 131102, 0, 1, 131103, 0, 2, 131104, 0, 1, 131105, 0, 2, 131106, 0, 2, 131107, 0, 0, 131108, 0, 2, 131109, 0, 1, 131110, 0, 0, 131111, 0, 2, 131112, 0, 1, 131113, 0, 0, 131114, 0, 0, 131115, 0, 2, 131116, 0, 1, 131117, 0, 1, 131118, 0, 0, 131119, 0, 0, 196608, 0, 0, 196609, 0, 3, 196610, 0, 2, 196611, 0, 1, 196612, 0, 3, 196613, 0, 2, 196614, 0, 3, 196615, 0, 0, 196616, 0, 3, 196617, 0, 3, 196618, 0, 2, 196619, 0, 2, 196620, 0, 1, 196621, 0, 0, 196622, 0, 3, 196623, 0, 1, 196624, 0, 0, 196625, 0, 3, 196626, 0, 0, 196627, 0, 1, 196628, 0, 3, 196629, 0, 2, 196630, 0, 3, 196631, 0, 1, 196632, 0, 0, 196633, 0, 3, 196634, 0, 1, 196635, 0, 2, 196636, 0, 0, 196637, 0, 1, 196638, 0, 0, 196639, 0, 2, 196640, 0, 2, 196641, 0, 3, 196642, 0, 1, 196643, 0, 3, 196644, 0, 2, 196645, 0, 2, 196646, 0, 2, 196647, 0, 2, 196648, 0, 0, 196649, 0, 3, 196650, 0, 0, 196651, 0, 2, 196652, 0, 0, 196653, 0, 2, 196654, 0, 2, 196655, 0, 0, 262144, 0, 0, 262145, 0, 3, 262146, 0, 1, 262147, 0, 2, 262148, 0, 0, 262149, 0, 0, 262150, 0, 3, 262151, 0, 2, 262152, 0, 2, 262153, 0, 3, 262154, 0, 0, 262155, 0, 0, 262156, 0, 1, 262157, 0, 1, 262158, 0, 3, 262159, 0, 0, 262160, 0, 3, 262161, 0, 0, 262162, 0, 2, 262163, 0, 3, 262164, 0, 1, 262165, 0, 0, 262166, 0, 2, 262167, 0, 2, 262168, 0, 3, 262169, 0, 3, 262170, 0, 0, 262171, 0, 0, 262172, 0, 1, 262173, 0, 1, 262174, 0, 0, 262175, 0, 2, 262176, 0, 3, 262177, 0, 2, 262178, 0, 0, 262179, 0, 0, 262180, 0, 3, 262181, 0, 1, 262182, 0, 0, 262183, 0, 2, 262184, 0, 3, 262185, 0, 1, 262186, 0, 2, 262187, 0, 3, 262188, 0, 2, 262189, 0, 2, 262190, 0, 1, 262191, 0, 0, 327680, 0, 0, 327681, 0, 2, 327682, 0, 2, 327683, 0, 2, 327684, 0, 3, 327685, 0, 3, 327686, 0, 3, 327687, 0, 1, 327688, 0, 3, 327689, 0, 0, 327690, 0, 0, 327691, 0, 1, 327692, 0, 2, 327693, 0, 2, 327694, 0, 2, 327695, 0, 3, 327696, 0, 0, 327697, 0, 2, 327698, 0, 2, 327699, 0, 2, 327700, 0, 2, 327701, 0, 2, 327702, 0, 2, 327703, 0, 1, 327704, 0, 2, 327705, 0, 0, 327706, 0, 2, 327707, 0, 3, 327708, 0, 2, 327709, 0, 3, 327710, 0, 3, 327711, 0, 2, 327712, 0, 1, 327713, 0, 0, 327714, 0, 1, 327715, 0, 3, 327716, 0, 2, 327717, 0, 2, 327718, 0, 2, 327719, 0, 2, 327720, 0, 0, 327721, 0, 1, 327722, 0, 3, 327723, 0, 3, 327724, 0, 2, 327725, 0, 1, 327726, 0, 1, 327727, 0, 0, 393216, 0, 0, 393217, 0, 1, 393218, 0, 1, 393219, 0, 3, 393220, 0, 3, 393221, 0, 0, 393222, 0, 1, 393223, 0, 0, 393224, 0, 3, 393225, 0, 2, 393226, 0, 0, 393227, 0, 0, 393228, 0, 2, 393229, 0, 1, 393230, 0, 2, 393231, 0, 3, 393232, 0, 2, 393233, 0, 1, 393234, 0, 1, 393235, 0, 2, 393236, 0, 2, 393237, 0, 1, 393238, 0, 1, 393239, 0, 0, 393240, 0, 0, 393241, 0, 3, 393242, 0, 1, 393243, 0, 0, 393244, 0, 1, 393245, 0, 3, 393246, 0, 2, 393247, 0, 1, 393248, 0, 1, 393249, 0, 1, 393250, 0, 1, 393251, 0, 0, 393252, 0, 0, 393253, 0, 2, 393254, 0, 1, 393255, 0, 2, 393256, 0, 1, 393257, 0, 3, 393258, 0, 3, 393259, 0, 2, 393260, 0, 1, 393261, 0, 0, 393262, 0, 3, 393263, 0, 0, 458752, 0, 0, 458753, 0, 3, 458754, 0, 1, 458755, 0, 2, 458756, 0, 0, 458757, 0, 0, 458758, 0, 0, 458759, 0, 2, 458760, 0, 2, 458761, 0, 3, 458762, 0, 2, 458763, 0, 0, 458764, 0, 3, 458765, 0, 0, 458766, 0, 3, 458767, 0, 0, 458768, 0, 3, 458769, 0, 0, 458770, 0, 1, 458771, 0, 3, 458772, 0, 1, 458773, 0, 0, 458774, 0, 2, 458775, 0, 0, 458776, 0, 0, 458777, 0, 1, 458778, 0, 0, 458779, 0, 3, 458780, 0, 0, 458781, 0, 3, 458782, 0, 0, 458783, 0, 0, 458784, 0, 3, 458785, 0, 1, 458786, 0, 0, 458787, 0, 1, 458788, 0, 2, 458789, 0, 0, 458790, 0, 1, 458791, 0, 1, 458792, 0, 0, 458793, 0, 1, 458794, 0, 1, 458795, 0, 0, 458796, 0, 1, 458797, 0, 1, 458798, 0, 2, 458799, 0, 0, 524288, 0, 0, 524289, 0, 0, 524290, 0, 3, 524291, 0, 3, 524292, 0, 0, 524293, 0, 0, 524294, 0, 0, 524295, 0, 0, 524296, 0, 1, 524297, 0, 3, 524298, 0, 1, 524299, 0, 3, 524300, 0, 3, 524301, 0, 1, 524302, 0, 3, 524303, 0, 3, 524304, 0, 0, 524305, 0, 0, 524306, 0, 3, 524307, 0, 0, 524308, 0, 0, 524309, 0, 1, 524310, 0, 0, 524311, 0, 2, 524312, 0, 0, 524313, 0, 2, 524314, 0, 1, 524315, 0, 0, 524316, 0, 3, 524317, 0, 1, 524318, 0, 2, 524319, 0, 2, 524320, 0, 1, 524321, 0, 3, 524322, 0, 3, 524323, 0, 0, 524324, 0, 1, 524325, 0, 2, 524326, 0, 2, 524327, 0, 0, 524328, 0, 2, 524329, 0, 3, 524330, 0, 1, 524331, 0, 2, 524332, 0, 0, 524333, 0, 3, 524334, 0, 1, 524335, 0, 0, 589824, 0, 0, 589825, 0, 1, 589826, 0, 3, 589827, 0, 0, 589828, 0, 2, 589829, 0, 3, 589830, 0, 2, 589831, 0, 3, 589832, 0, 3, 589833, 0, 3, 589834, 0, 2, 589835, 0, 1, 589836, 0, 2, 589837, 0, 2, 589838, 0, 2, 589839, 0, 1, 589840, 0, 3, 589841, 0, 2, 589842, 0, 3, 589843, 0, 2, 589844, 0, 0, 589845, 0, 0, 589846, 0, 3, 589847, 0, 0, 589848, 0, 1, 589849, 0, 2, 589850, 0, 2, 589851, 0, 2, 589852, 0, 3, 589853, 0, 0, 589854, 0, 3, 589855, 0, 2, 589856, 0, 2, 589857, 0, 0, 589858, 0, 1, 589859, 0, 1, 589860, 0, 3, 589861, 0, 3, 589862, 0, 1, 589863, 0, 0, 589864, 0, 1, 589865, 0, 2, 589866, 0, 1, 589867, 0, 2, 589868, 0, 3, 589869, 0, 2, 589870, 0, 1, 589871, 0, 0, 655360, 0, 0, 655361, 0, 3, 655362, 0, 2, 655363, 0, 0, 655364, 0, 0, 655365, 0, 2, 655366, 0, 1, 655367, 0, 3, 655368, 0, 1, 655369, 0, 2, 655370, 0, 1, 655371, 0, 2, 655372, 0, 0, 655373, 0, 0, 655374, 0, 0, 655375, 0, 3, 655376, 0, 1, 655377, 0, 1, 655378, 0, 2, 655379, 0, 1, 655380, 0, 0, 655381, 0, 0, 655382, 0, 2, 655383, 0, 2, 655384, 0, 2, 655385, 0, 0, 655386, 0, 3, 655387, 0, 2, 655388, 0, 2, 655389, 0, 0, 655390, 0, 0, 655391, 0, 0, 655392, 0, 2, 655393, 0, 1, 655394, 0, 0, 655395, 0, 0, 655396, 0, 1, 655397, 0, 0, 655398, 0, 3, 655399, 0, 2, 655400, 0, 3, 655401, 0, 1, 655402, 0, 2, 655403, 0, 2, 655404, 0, 1, 655405, 0, 3, 655406, 0, 1, 655407, 0, 0, 720896, 0, 0, 720897, 0, 0, 720898, 0, 1, 720899, 0, 1, 720900, 0, 1, 720901, 0, 2, 720902, 0, 0, 720903, 0, 0, 720904, 0, 0, 720905, 0, 1, 720906, 0, 1, 720907, 0, 1, 720908, 0, 3, 720909, 0, 3, 720910, 0, 1, 720911, 0, 2, 720912, 0, 1, 720913, 0, 0, 720914, 0, 1, 720915, 0, 1, 720916, 0, 3, 720917, 0, 3, 720918, 0, 2, 720919, 0, 0, 720920, 0, 1, 720921, 0, 2, 720922, 0, 1, 720923, 0, 1, 720924, 0, 2, 720925, 0, 1, 720926, 0, 2, 720927, 0, 0, 720928, 0, 2, 720929, 0, 1, 720930, 0, 3, 720931, 0, 3, 720932, 0, 2, 720933, 0, 0, 720934, 0, 2, 720935, 0, 3, 720936, 0, 3, 720937, 0, 2, 720938, 0, 0, 720939, 0, 3, 720940, 0, 0, 720941, 0, 0, 720942, 0, 3, 720943, 0, 0, 786432, 0, 0, 786433, 0, 0, 786434, 0, 1, 786435, 0, 0, 786436, 0, 3, 786437, 0, 3, 786438, 0, 0, 786439, 0, 1, 786440, 0, 3, 786441, 0, 2, 786442, 0, 3, 786443, 0, 3, 786444, 0, 2, 786445, 0, 0, 786446, 0, 2, 786447, 0, 2, 786448, 0, 2, 786449, 0, 2, 786450, 0, 2, 786451, 0, 1, 786452, 0, 1, 786453, 0, 2, 786454, 0, 1, 786455, 0, 0, 786456, 0, 3, 786457, 0, 0, 786458, 0, 0, 786459, 0, 0, 786460, 0, 0, 786461, 0, 0, 786462, 0, 0, 786463, 0, 0, 786464, 0, 0, 786465, 0, 0, 786466, 0, 0, 786467, 0, 3, 786468, 0, 2, 786469, 0, 1, 786470, 0, 0, 786471, 0, 1, 786472, 0, 0, 786473, 0, 3, 786474, 0, 0, 786475, 0, 1, 786476, 0, 1, 786477, 0, 2, 786478, 0, 2, 786479, 0, 0, 851968, 0, 0, 851969, 0, 2, 851970, 0, 3, 851971, 0, 2, 851972, 0, 0, 851973, 0, 3, 851974, 0, 0, 851975, 0, 1, 851976, 0, 3, 851977, 0, 1, 851978, 0, 3, 851979, 0, 0, 851980, 0, 3, 851981, 0, 1, 851982, 0, 3, 851983, 0, 1, 851984, 0, 1, 851985, 0, 1, 851986, 0, 1, 851987, 0, 3, 851988, 0, 0, 851989, 0, 2, 851990, 0, 0, 851991, 0, 2, 851992, 0, 1, 851993, 0, 0, 851994, 0, 0, 851995, 1, 11, 851996, 1, 1, 851997, 1, 12, 851998, 1, 12, 851999, 1, 2, 852000, 0, 0, 852001, 0, 2, 852002, 0, 1, 852003, 0, 0, 852004, 0, 0, 852005, 0, 1, 852006, 0, 0, 852007, 0, 0, 852008, 0, 2, 852009, 0, 3, 852010, 0, 0, 852011, 0, 0, 852012, 0, 3, 852013, 0, 2, 852014, 0, 3, 852015, 0, 0, 917504, 0, 0, 917505, 0, 0, 917506, 0, 1, 917507, 0, 3, 917508, 0, 0, 917509, 0, 1, 917510, 0, 2, 917511, 0, 1, 917512, 0, 2, 917513, 0, 2, 917514, 0, 1, 917515, 0, 3, 917516, 0, 2, 917517, 0, 0, 917518, 0, 1, 917519, 0, 0, 917520, 0, 2, 917521, 0, 0, 917522, 0, 3, 917523, 0, 0, 917524, 0, 1, 917525, 0, 0, 917526, 0, 3, 917527, 0, 1, 917528, 0, 2, 917529, 0, 0, 917530, 0, 0, 917531, 1, 65536, 917532, 1, 65548, 917533, 1, 65537, 917534, 1, 65548, 917535, 1, 65549, 917536, 0, 0, 917537, 0, 0, 917538, 0, 0, 917539, 0, 3, 917540, 0, 1, 917541, 0, 2, 917542, 0, 0, 917543, 0, 1, 917544, 0, 3, 917545, 0, 0, 917546, 0, 1, 917547, 0, 0, 917548, 0, 0, 917549, 0, 3, 917550, 0, 0, 917551, 0, 0, 983040, 0, 0, 983041, 0, 3, 983042, 0, 2, 983043, 0, 1, 983044, 0, 0, 983045, 0, 3, 983046, 0, 0, 983047, 0, 0, 983048, 0, 2, 983049, 0, 2, 983050, 0, 3, 983051, 0, 0, 983052, 0, 2, 983053, 0, 1, 983054, 0, 2, 983055, 0, 3, 983056, 0, 2, 983057, 0, 0, 983058, 0, 3, 983059, 0, 3, 983060, 0, 1, 983061, 0, 1, 983062, 0, 0, 983063, 0, 1, 983064, 0, 1, 983065, 0, 0, 983066, 1, 0, 983067, 1, 131089, 983068, 1, 262146, 983069, 1, 262144, 983070, 1, 65537, 983071, 1, 131088, 983072, 1, 1, 983073, 1, 2, 983074, 0, 0, 983075, 0, 0, 983076, 0, 0, 983077, 0, 2, 983078, 0, 1, 983079, 0, 3, 983080, 0, 0, 983081, 0, 2, 983082, 0, 2, 983083, 0, 1, 983084, 0, 3, 983085, 0, 2, 983086, 0, 1, 983087, 0, 0, 1048576, 0, 0, 1048577, 0, 1, 1048578, 0, 1, 1048579, 0, 3, 1048580, 0, 2, 1048581, 0, 3, 1048582, 0, 1, 1048583, 0, 0, 1048584, 0, 3, 1048585, 0, 1, 1048586, 0, 3, 1048587, 0, 3, 1048588, 0, 1, 1048589, 0, 1, 1048590, 0, 1, 1048591, 0, 2, 1048592, 0, 2, 1048593, 0, 3, 1048594, 0, 2, 1048595, 0, 3, 1048596, 0, 2, 1048597, 0, 2, 1048598, 0, 0, 1048599, 0, 2, 1048600, 0, 1, 1048601, 0, 0, 1048602, 1, 65536, 1048603, 1, 65548, 1048604, 1, 262144, 1048605, 1, 262144, 1048606, 1, 262144, 1048607, 1, 262144, 1048608, 1, 262144, 1048609, 1, 65538, 1048610, 0, 0, 1048611, 0, 3, 1048612, 0, 1, 1048613, 0, 0, 1048614, 0, 0, 1048615, 0, 3, 1048616, 0, 3, 1048617, 0, 2, 1048618, 0, 2, 1048619, 0, 3, 1048620, 0, 3, 1048621, 0, 3, 1048622, 0, 0, 1048623, 0, 0, 1114112, 0, 0, 1114113, 0, 3, 1114114, 0, 1, 1114115, 0, 0, 1114116, 0, 2, 1114117, 0, 0, 1114118, 0, 2, 1114119, 0, 0, 1114120, 0, 2, 1114121, 0, 3, 1114122, 0, 3, 1114123, 0, 2, 1114124, 0, 3, 1114125, 0, 3, 1114126, 0, 3, 1114127, 0, 3, 1114128, 0, 0, 1114129, 0, 0, 1114130, 0, 0, 1114131, 0, 1, 1114132, 0, 2, 1114133, 0, 1, 1114134, 0, 3, 1114135, 0, 3, 1114136, 0, 2, 1114137, 0, 0, 1114138, 1, 65547, 1114139, 1, 65537, 1114140, 1, 262145, 1114141, 1, 262145, 1114142, 1, 262144, 1114143, 1, 262144, 1114144, 1, 65548, 1114145, 1, 65549, 1114146, 0, 0, 1114147, 0, 3, 1114148, 0, 2, 1114149, 0, 3, 1114150, 0, 2, 1114151, 0, 1, 1114152, 0, 3, 1114153, 0, 3, 1114154, 0, 2, 1114155, 0, 1, 1114156, 0, 1, 1114157, 0, 2, 1114158, 0, 2, 1114159, 0, 0, 1179648, 0, 0, 1179649, 0, 1, 1179650, 0, 2, 1179651, 0, 3, 1179652, 0, 2, 1179653, 0, 1, 1179654, 0, 1, 1179655, 0, 2, 1179656, 0, 3, 1179657, 0, 0, 1179658, 0, 3, 1179659, 0, 2, 1179660, 0, 3, 1179661, 0, 0, 1179662, 0, 0, 1179663, 0, 2, 1179664, 0, 2, 1179665, 0, 2, 1179666, 0, 2, 1179667, 0, 2, 1179668, 0, 2, 1179669, 0, 1, 1179670, 0, 1, 1179671, 0, 2, 1179672, 0, 2, 1179673, 0, 0, 1179674, 1, 65547, 1179675, 1, 65548, 1179676, 1, 262146, 1179677, 1, 262145, 1179678, 1, 65548, 1179679, 1, 65537, 1179680, 1, 65537, 1179681, 1, 65549, 1179682, 0, 0, 1179683, 0, 3, 1179684, 0, 0, 1179685, 0, 1, 1179686, 0, 2, 1179687, 0, 0, 1179688, 0, 1, 1179689, 0, 2, 1179690, 0, 1, 1179691, 0, 1, 1179692, 0, 2, 1179693, 0, 0, 1179694, 0, 0, 1179695, 0, 0, 1245184, 0, 0, 1245185, 0, 1, 1245186, 0, 3, 1245187, 0, 0, 1245188, 0, 1, 1245189, 0, 3, 1245190, 0, 3, 1245191, 0, 1, 1245192, 0, 0, 1245193, 0, 2, 1245194, 0, 0, 1245195, 0, 3, 1245196, 0, 3, 1245197, 0, 3, 1245198, 0, 0, 1245199, 0, 1, 1245200, 0, 1, 1245201, 0, 2, 1245202, 0, 2, 1245203, 0, 1, 1245204, 0, 2, 1245205, 0, 1, 1245206, 0, 2, 1245207, 0, 3, 1245208, 0, 3, 1245209, 0, 0, 1245210, 1, 65547, 1245211, 1, 262146, 1245212, 1, 65537, 1245213, 1, 262145, 1245214, 1, 262145, 1245215, 1, 262145, 1245216, 1, 65548, 1245217, 1, 65538, 1245218, 0, 0, 1245219, 0, 3, 1245220, 0, 0, 1245221, 0, 1, 1245222, 0, 2, 1245223, 0, 0, 1245224, 0, 2, 1245225, 0, 2, 1245226, 0, 2, 1245227, 0, 2, 1245228, 0, 3, 1245229, 0, 2, 1245230, 0, 3, 1245231, 0, 0, 1310720, 0, 0, 1310721, 0, 1, 1310722, 0, 2, 1310723, 0, 0, 1310724, 0, 3, 1310725, 0, 0, 1310726, 0, 2, 1310727, 0, 2, 1310728, 0, 0, 1310729, 0, 2, 1310730, 0, 2, 1310731, 0, 2, 1310732, 0, 0, 1310733, 0, 2, 1310734, 0, 1, 1310735, 0, 2, 1310736, 0, 3, 1310737, 0, 0, 1310738, 0, 0, 1310739, 0, 3, 1310740, 0, 0, 1310741, 0, 3, 1310742, 0, 3, 1310743, 0, 0, 1310744, 0, 1, 1310745, 0, 0, 1310746, 1, 131072, 1310747, 1, 131084, 1310748, 1, 131073, 1310749, 1, 131073, 1310750, 1, 131073, 1310751, 1, 131084, 1310752, 1, 131084, 1310753, 1, 131085, 1310754, 0, 0, 1310755, 0, 1, 1310756, 0, 1, 1310757, 0, 3, 1310758, 0, 1, 1310759, 0, 1, 1310760, 0, 0, 1310761, 0, 2, 1310762, 0, 3, 1310763, 0, 0, 1310764, 0, 2, 1310765, 0, 2, 1310766, 0, 0, 1310767, 0, 0, 1376256, 0, 0, 1376257, 0, 0, 1376258, 0, 3, 1376259, 0, 0, 1376260, 0, 3, 1376261, 0, 3, 1376262, 0, 3, 1376263, 0, 3, 1376264, 0, 0, 1376265, 0, 0, 1376266, 0, 2, 1376267, 0, 0, 1376268, 0, 0, 1376269, 0, 0, 1376270, 0, 0, 1376271, 0, 0, 1376272, 0, 0, 1376273, 0, 1, 1376274, 0, 2, 1376275, 0, 0, 1376276, 0, 3, 1376277, 0, 2, 1376278, 0, 3, 1376279, 0, 2, 1376280, 0, 1, 1376281, 0, 0, 1376282, 0, 0, 1376283, 0, 0, 1376284, 0, 0, 1376285, 0, 0, 1376286, 0, 0, 1376287, 0, 0, 1376288, 0, 0, 1376289, 0, 0, 1376290, 0, 0, 1376291, 0, 1, 1376292, 0, 0, 1376293, 0, 1, 1376294, 0, 3, 1376295, 0, 2, 1376296, 0, 0, 1376297, 0, 1, 1376298, 0, 2, 1376299, 0, 2, 1376300, 0, 0, 1376301, 0, 0, 1376302, 0, 2, 1376303, 0, 0, 1441792, 0, 0, 1441793, 0, 2, 1441794, 0, 0, 1441795, 0, 3, 1441796, 0, 2, 1441797, 0, 1, 1441798, 0, 3, 1441799, 0, 1, 1441800, 0, 2, 1441801, 0, 1, 1441802, 0, 2, 1441803, 0, 3, 1441804, 0, 1, 1441805, 0, 2, 1441806, 0, 0, 1441807, 0, 1, 1441808, 0, 0, 1441809, 0, 3, 1441810, 0, 1, 1441811, 0, 3, 1441812, 0, 0, 1441813, 0, 3, 1441814, 0, 2, 1441815, 0, 1, 1441816, 0, 2, 1441817, 0, 3, 1441818, 0, 1, 1441819, 0, 0, 1441820, 0, 0, 1441821, 0, 3, 1441822, 0, 2, 1441823, 0, 1, 1441824, 0, 1, 1441825, 0, 3, 1441826, 0, 3, 1441827, 0, 0, 1441828, 0, 1, 1441829, 0, 0, 1441830, 0, 2, 1441831, 0, 1, 1441832, 0, 0, 1441833, 0, 3, 1441834, 0, 3, 1441835, 0, 3, 1441836, 0, 0, 1441837, 0, 0, 1441838, 0, 2, 1441839, 0, 0, 1507328, 0, 0, 1507329, 0, 0, 1507330, 0, 0, 1507331, 0, 2, 1507332, 0, 0, 1507333, 0, 1, 1507334, 0, 3, 1507335, 0, 0, 1507336, 0, 0, 1507337, 0, 0, 1507338, 0, 0, 1507339, 0, 0, 1507340, 0, 0, 1507341, 0, 0, 1507342, 0, 0, 1507343, 0, 0, 1507344, 0, 0, 1507345, 0, 0, 1507346, 0, 0, 1507347, 0, 0, 1507348, 0, 0, 1507349, 0, 0, 1507350, 0, 0, 1507351, 0, 0, 1507352, 0, 0, 1507353, 0, 0, 1507354, 0, 0, 1507355, 0, 0, 1507356, 0, 3, 1507357, 0, 1, 1507358, 0, 2, 1507359, 0, 3, 1507360, 0, 1, 1507361, 0, 0, 1507362, 0, 3, 1507363, 0, 1, 1507364, 0, 1, 1507365, 0, 2, 1507366, 0, 3, 1507367, 0, 1, 1507368, 0, 2, 1507369, 0, 1, 1507370, 0, 0, 1507371, 0, 3, 1507372, 0, 0, 1507373, 0, 1, 1507374, 0, 0, 1507375, 0, 0, 1572864, 0, 0, 1572865, 0, 0, 1572866, 0, 2, 1572867, 0, 0, 1572868, 0, 0, 1572869, 0, 0, 1572870, 0, 0, 1572871, 0, 0, 1572872, 1, 11, 1572873, 1, 12, 1572874, 1, 12, 1572875, 1, 12, 1572876, 1, 12, 1572877, 1, 12, 1572878, 1, 12, 1572879, 1, 12, 1572880, 1, 1, 1572881, 1, 12, 1572882, 1, 1, 1572883, 1, 12, 1572884, 1, 1, 1572885, 1, 1, 1572886, 1, 12, 1572887, 1, 12, 1572888, 1, 1, 1572889, 1, 12, 1572890, 1, 13, 1572891, 0, 0, 1572892, 0, 3, 1572893, 0, 3, 1572894, 0, 0, 1572895, 0, 2, 1572896, 0, 2, 1572897, 0, 3, 1572898, 0, 2, 1572899, 0, 2, 1572900, 0, 2, 1572901, 0, 1, 1572902, 0, 3, 1572903, 0, 3, 1572904, 0, 1, 1572905, 0, 1, 1572906, 0, 0, 1572907, 0, 3, 1572908, 0, 0, 1572909, 0, 3, 1572910, 0, 2, 1572911, 0, 0, 1638400, 0, 0, 1638401, 0, 0, 1638402, 0, 2, 1638403, 0, 2, 1638404, 0, 0, 1638405, 0, 0, 1638406, 1, 11, 1638407, 1, 12, 1638408, 1, 131089, 1638409, 1, 262144, 1638410, 1, 262146, 1638411, 1, 65537, 1638412, 1, 262146, 1638413, 1, 262145, 1638414, 1, 262144, 1638415, 1, 262144, 1638416, 1, 262146, 1638417, 1, 262145, 1638418, 1, 65537, 1638419, 1, 65537, 1638420, 1, 262146, 1638421, 1, 262146, 1638422, 1, 65548, 1638423, 1, 262145, 1638424, 1, 262145, 1638425, 1, 262146, 1638426, 1, 65549, 1638427, 0, 0, 1638428, 0, 1, 1638429, 0, 0, 1638430, 0, 0, 1638431, 0, 3, 1638432, 0, 0, 1638433, 0, 0, 1638434, 0, 3, 1638435, 0, 3, 1638436, 0, 3, 1638437, 0, 3, 1638438, 0, 2, 1638439, 0, 0, 1638440, 0, 0, 1638441, 0, 2, 1638442, 0, 0, 1638443, 0, 0, 1638444, 0, 3, 1638445, 0, 0, 1638446, 0, 3, 1638447, 0, 0, 1703936, 0, 0, 1703937, 0, 1, 1703938, 0, 1, 1703939, 0, 0, 1703940, 0, 2, 1703941, 0, 0, 1703942, 1, 65547, 1703943, 1, 65548, 1703944, 1, 65537, 1703945, 1, 262145, 1703946, 1, 262146, 1703947, 1, 262145, 1703948, 1, 262144, 1703949, 1, 65537, 1703950, 1, 65548, 1703951, 1, 262144, 1703952, 1, 262146, 1703953, 1, 65548, 1703954, 1, 65548, 1703955, 1, 65548, 1703956, 1, 262144, 1703957, 1, 262146, 1703958, 1, 65548, 1703959, 1, 262144, 1703960, 1, 262146, 1703961, 1, 65537, 1703962, 1, 65549, 1703963, 0, 0, 1703964, 0, 2, 1703965, 0, 1, 1703966, 0, 0, 1703967, 0, 1, 1703968, 0, 2, 1703969, 0, 0, 1703970, 0, 1, 1703971, 0, 0, 1703972, 0, 0, 1703973, 0, 3, 1703974, 0, 1, 1703975, 0, 2, 1703976, 0, 2, 1703977, 0, 3, 1703978, 0, 1, 1703979, 0, 1, 1703980, 0, 2, 1703981, 0, 0, 1703982, 0, 2, 1703983, 0, 0, 1769472, 0, 0, 1769473, 0, 3, 1769474, 0, 0, 1769475, 0, 2, 1769476, 0, 2, 1769477, 0, 0, 1769478, 1, 65536, 1769479, 1, 262146, 1769480, 1, 65537, 1769481, 1, 262144, 1769482, 1, 65548, 1769483, 1, 262145, 1769484, 1, 65548, 1769485, 1, 65548, 1769486, 1, 262144, 1769487, 1, 65537, 1769488, 1, 262146, 1769489, 1, 65548, 1769490, 1, 262146, 1769491, 1, 65537, 1769492, 1, 65537, 1769493, 1, 262145, 1769494, 1, 65548, 1769495, 1, 262144, 1769496, 1, 65552, 1769497, 1, 131084, 1769498, 1, 131085, 1769499, 0, 0, 1769500, 0, 3, 1769501, 0, 0, 1769502, 0, 0, 1769503, 0, 1, 1769504, 0, 0, 1769505, 0, 0, 1769506, 0, 0, 1769507, 0, 2, 1769508, 0, 0, 1769509, 0, 0, 1769510, 0, 2, 1769511, 0, 3, 1769512, 0, 2, 1769513, 0, 0, 1769514, 0, 1, 1769515, 0, 0, 1769516, 0, 0, 1769517, 0, 2, 1769518, 0, 0, 1769519, 0, 0, 1835008, 0, 0, 1835009, 0, 0, 1835010, 0, 2, 1835011, 0, 1, 1835012, 0, 0, 1835013, 0, 0, 1835014, 1, 65536, 1835015, 1, 262144, 1835016, 1, 262146, 1835017, 1, 65548, 1835018, 1, 262144, 1835019, 1, 262146, 1835020, 1, 65548, 1835021, 1, 65548, 1835022, 1, 262145, 1835023, 1, 262146, 1835024, 1, 262144, 1835025, 1, 65537, 1835026, 1, 262146, 1835027, 1, 262145, 1835028, 1, 65537, 1835029, 1, 262144, 1835030, 1, 262145, 1835031, 1, 262145, 1835032, 1, 65538, 1835033, 0, 0, 1835034, 0, 0, 1835035, 0, 0, 1835036, 0, 3, 1835037, 0, 0, 1835038, 0, 2, 1835039, 0, 3, 1835040, 0, 2, 1835041, 0, 0, 1835042, 0, 2, 1835043, 0, 0, 1835044, 0, 0, 1835045, 0, 1, 1835046, 0, 2, 1835047, 0, 1, 1835048, 0, 0, 1835049, 0, 2, 1835050, 0, 0, 1835051, 0, 0, 1835052, 0, 3, 1835053, 0, 1, 1835054, 0, 1, 1835055, 0, 0, 1900544, 0, 0, 1900545, 0, 3, 1900546, 0, 0, 1900547, 0, 3, 1900548, 0, 2, 1900549, 0, 0, 1900550, 1, 65547, 1900551, 1, 65537, 1900552, 1, 262145, 1900553, 1, 262146, 1900554, 1, 262144, 1900555, 1, 262145, 1900556, 1, 65548, 1900557, 1, 262145, 1900558, 1, 65537, 1900559, 1, 65548, 1900560, 1, 65537, 1900561, 1, 262144, 1900562, 1, 262146, 1900563, 1, 65548, 1900564, 1, 65537, 1900565, 1, 262146, 1900566, 1, 262144, 1900567, 1, 262145, 1900568, 1, 65549, 1900569, 0, 0, 1900570, 0, 2, 1900571, 0, 2, 1900572, 0, 2, 1900573, 0, 1, 1900574, 0, 3, 1900575, 0, 1, 1900576, 0, 0, 1900577, 0, 3, 1900578, 0, 0, 1900579, 0, 0, 1900580, 0, 2, 1900581, 0, 0, 1900582, 0, 1, 1900583, 0, 2, 1900584, 0, 2, 1900585, 0, 0, 1900586, 0, 0, 1900587, 0, 1, 1900588, 0, 0, 1900589, 0, 0, 1900590, 0, 0, 1900591, 0, 0, 1966080, 0, 0, 1966081, 0, 2, 1966082, 0, 1, 1966083, 0, 3, 1966084, 0, 3, 1966085, 0, 0, 1966086, 1, 65536, 1966087, 1, 262146, 1966088, 1, 65537, 1966089, 1, 262144, 1966090, 1, 65537, 1966091, 1, 262146, 1966092, 1, 65537, 1966093, 1, 65548, 1966094, 1, 65548, 1966095, 1, 262144, 1966096, 1, 262146, 1966097, 1, 262145, 1966098, 1, 262146, 1966099, 1, 65537, 1966100, 1, 65548, 1966101, 1, 65548, 1966102, 1, 65537, 1966103, 1, 65552, 1966104, 1, 131074, 1966105, 0, 0, 1966106, 0, 0, 1966107, 0, 0, 1966108, 0, 1, 1966109, 0, 3, 1966110, 0, 3, 1966111, 0, 1, 1966112, 0, 0, 1966113, 0, 1, 1966114, 0, 1, 1966115, 0, 2, 1966116, 0, 0, 1966117, 0, 0, 1966118, 0, 0, 1966119, 0, 3, 1966120, 0, 1, 1966121, 0, 1, 1966122, 0, 1, 1966123, 0, 1, 1966124, 0, 3, 1966125, 0, 0, 1966126, 0, 2, 1966127, 0, 0, 2031616, 0, 0, 2031617, 0, 1, 2031618, 0, 0, 2031619, 0, 1, 2031620, 0, 2, 2031621, 0, 0, 2031622, 1, 131083, 2031623, 1, 131073, 2031624, 1, 131084, 2031625, 1, 131084, 2031626, 1, 131084, 2031627, 1, 131084, 2031628, 1, 131073, 2031629, 1, 131084, 2031630, 1, 131073, 2031631, 1, 131084, 2031632, 1, 131084, 2031633, 1, 131084, 2031634, 1, 131084, 2031635, 1, 131073, 2031636, 1, 131084, 2031637, 1, 131073, 2031638, 1, 131073, 2031639, 1, 131074, 2031640, 0, 0, 2031641, 0, 0, 2031642, 0, 1, 2031643, 0, 0, 2031644, 0, 2, 2031645, 0, 3, 2031646, 0, 2, 2031647, 0, 0, 2031648, 0, 1, 2031649, 0, 3, 2031650, 0, 3, 2031651, 0, 1, 2031652, 0, 3, 2031653, 0, 1, 2031654, 0, 1, 2031655, 0, 3, 2031656, 0, 1, 2031657, 0, 2, 2031658, 0, 2, 2031659, 0, 3, 2031660, 0, 3, 2031661, 0, 2, 2031662, 0, 1, 2031663, 0, 0, 2097152, 0, 0, 2097153, 0, 2, 2097154, 0, 2, 2097155, 0, 2, 2097156, 0, 2, 2097157, 0, 0, 2097158, 0, 0, 2097159, 0, 0, 2097160, 0, 0, 2097161, 0, 0, 2097162, 0, 0, 2097163, 0, 0, 2097164, 0, 0, 2097165, 0, 0, 2097166, 0, 0, 2097167, 0, 0, 2097168, 0, 0, 2097169, 0, 0, 2097170, 0, 0, 2097171, 0, 0, 2097172, 0, 0, 2097173, 0, 0, 2097174, 0, 0, 2097175, 0, 0, 2097176, 0, 0, 2097177, 0, 1, 2097178, 0, 1, 2097179, 0, 2, 2097180, 0, 3, 2097181, 0, 0, 2097182, 0, 0, 2097183, 0, 3, 2097184, 0, 3, 2097185, 0, 2, 2097186, 0, 0, 2097187, 0, 1, 2097188, 0, 1, 2097189, 0, 1, 2097190, 0, 0, 2097191, 0, 2, 2097192, 0, 2, 2097193, 0, 1, 2097194, 0, 0, 2097195, 0, 0, 2097196, 0, 0, 2097197, 0, 0, 2097198, 0, 1, 2097199, 0, 0, 2162688, 0, 0, 2162689, 0, 2, 2162690, 0, 3, 2162691, 0, 2, 2162692, 0, 0, 2162693, 0, 3, 2162694, 0, 2, 2162695, 0, 2, 2162696, 0, 1, 2162697, 0, 1, 2162698, 0, 2, 2162699, 0, 3, 2162700, 0, 3, 2162701, 0, 0, 2162702, 0, 0, 2162703, 0, 3, 2162704, 0, 3, 2162705, 0, 2, 2162706, 0, 1, 2162707, 0, 3, 2162708, 0, 2, 2162709, 0, 3, 2162710, 0, 1, 2162711, 0, 3, 2162712, 0, 3, 2162713, 0, 0, 2162714, 0, 0, 2162715, 0, 2, 2162716, 0, 2, 2162717, 0, 2, 2162718, 0, 3, 2162719, 0, 3, 2162720, 0, 1, 2162721, 0, 1, 2162722, 0, 3, 2162723, 0, 3, 2162724, 0, 1, 2162725, 0, 0, 2162726, 0, 1, 2162727, 0, 1, 2162728, 0, 1, 2162729, 0, 0, 2162730, 0, 1, 2162731, 0, 2, 2162732, 0, 2, 2162733, 0, 2, 2162734, 0, 3, 2162735, 0, 0, 2228224, 0, 0, 2228225, 0, 3, 2228226, 0, 3, 2228227, 0, 0, 2228228, 0, 0, 2228229, 0, 3, 2228230, 0, 0, 2228231, 0, 2, 2228232, 0, 2, 2228233, 0, 1, 2228234, 0, 3, 2228235, 0, 0, 2228236, 0, 3, 2228237, 0, 1, 2228238, 0, 3, 2228239, 0, 3, 2228240, 0, 2, 2228241, 0, 0, 2228242, 0, 0, 2228243, 0, 2, 2228244, 0, 1, 2228245, 0, 1, 2228246, 0, 0, 2228247, 0, 1, 2228248, 0, 1, 2228249, 0, 2, 2228250, 0, 2, 2228251, 0, 2, 2228252, 0, 2, 2228253, 0, 0, 2228254, 0, 0, 2228255, 0, 3, 2228256, 0, 1, 2228257, 0, 3, 2228258, 0, 0, 2228259, 0, 1, 2228260, 0, 0, 2228261, 0, 0, 2228262, 0, 2, 2228263, 0, 2, 2228264, 0, 3, 2228265, 0, 1, 2228266, 0, 0, 2228267, 0, 2, 2228268, 0, 2, 2228269, 0, 1, 2228270, 0, 0, 2228271, 0, 0, 2293760, 0, 0, 2293761, 0, 2, 2293762, 0, 2, 2293763, 0, 2, 2293764, 0, 1, 2293765, 0, 2, 2293766, 0, 1, 2293767, 0, 0, 2293768, 0, 2, 2293769, 0, 2, 2293770, 0, 0, 2293771, 0, 0, 2293772, 0, 3, 2293773, 0, 2, 2293774, 0, 0, 2293775, 0, 2, 2293776, 0, 1, 2293777, 0, 1, 2293778, 0, 0, 2293779, 0, 2, 2293780, 0, 0, 2293781, 0, 0, 2293782, 0, 1, 2293783, 0, 2, 2293784, 0, 3, 2293785, 0, 3, 2293786, 0, 2, 2293787, 0, 1, 2293788, 0, 1, 2293789, 0, 1, 2293790, 0, 1, 2293791, 0, 2, 2293792, 0, 0, 2293793, 0, 0, 2293794, 0, 2, 2293795, 0, 0, 2293796, 0, 3, 2293797, 0, 1, 2293798, 0, 1, 2293799, 0, 3, 2293800, 0, 2, 2293801, 0, 3, 2293802, 0, 2, 2293803, 0, 1, 2293804, 0, 3, 2293805, 0, 1, 2293806, 0, 0, 2293807, 0, 0, 2359296, 0, 0, 2359297, 0, 0, 2359298, 0, 0, 2359299, 0, 0, 2359300, 0, 0, 2359301, 0, 0, 2359302, 0, 0, 2359303, 0, 0, 2359304, 0, 0, 2359305, 0, 0, 2359306, 0, 0, 2359307, 0, 0, 2359308, 0, 0, 2359309, 0, 0, 2359310, 0, 0, 2359311, 0, 0, 2359312, 0, 0, 2359313, 0, 0, 2359314, 0, 0, 2359315, 0, 0, 2359316, 0, 0, 2359317, 0, 0, 2359318, 0, 0, 2359319, 0, 0, 2359320, 0, 0, 2359321, 0, 2, 2359322, 0, 0, 2359323, 0, 3, 2359324, 0, 2, 2359325, 0, 0, 2359326, 0, 1, 2359327, 0, 3, 2359328, 0, 2, 2359329, 0, 1, 2359330, 0, 1, 2359331, 0, 2, 2359332, 0, 1, 2359333, 0, 2, 2359334, 0, 0, 2359335, 0, 0, 2359336, 0, 2, 2359337, 0, 3, 2359338, 0, 1, 2359339, 0, 3, 2359340, 0, 1, 2359341, 0, 2, 2359342, 0, 2, 2359343, 0, 0, 2424832, 2, 0, 2424833, 2, 12, 2424834, 2, 12, 2424835, 2, 12, 2424836, 2, 12, 2424837, 2, 12, 2424838, 2, 12, 2424839, 2, 12, 2424840, 2, 12, 2424841, 2, 12, 2424842, 2, 1, 2424843, 2, 1, 2424844, 2, 1, 2424845, 2, 1, 2424846, 2, 1, 2424847, 2, 12, 2424848, 2, 12, 2424849, 2, 12, 2424850, 2, 1, 2424851, 2, 1, 2424852, 2, 12, 2424853, 2, 1, 2424854, 2, 13, 2424855, 0, 0, 2424856, 0, 2, 2424857, 0, 1, 2424858, 0, 2, 2424859, 0, 0, 2424860, 0, 2, 2424861, 0, 2, 2424862, 0, 1, 2424863, 0, 1, 2424864, 0, 3, 2424865, 0, 0, 2424866, 0, 0, 2424867, 0, 0, 2424868, 0, 0, 2424869, 0, 0, 2424870, 0, 0, 2424871, 0, 0, 2424872, 0, 0, 2424873, 0, 1, 2424874, 0, 1, 2424875, 0, 3, 2424876, 0, 1, 2424877, 0, 2, 2424878, 0, 0, 2424879, 0, 0, 2490368, 2, 65547, 2490369, 2, 262144, 2490370, 2, 262145, 2490371, 2, 262144, 2490372, 2, 262146, 2490373, 2, 262144, 2490374, 2, 262144, 2490375, 2, 65548, 2490376, 2, 262145, 2490377, 2, 65537, 2490378, 2, 262146, 2490379, 2, 262145, 2490380, 2, 65537, 2490381, 2, 65537, 2490382, 2, 262144, 2490383, 2, 262146, 2490384, 2, 65548, 2490385, 2, 65548, 2490386, 2, 65548, 2490387, 2, 262146, 2490388, 2, 262144, 2490389, 2, 262145, 2490390, 2, 65538, 2490391, 0, 0, 2490392, 0, 3, 2490393, 0, 2, 2490394, 0, 2, 2490395, 0, 1, 2490396, 0, 3, 2490397, 0, 0, 2490398, 0, 0, 2490399, 0, 3, 2490400, 0, 2, 2490401, 0, 0, 2490402, 2, 0, 2490403, 2, 12, 2490404, 2, 12, 2490405, 2, 1, 2490406, 2, 13, 2490407, 0, 0, 2490408, 0, 3, 2490409, 0, 3, 2490410, 0, 1, 2490411, 0, 2, 2490412, 0, 0, 2490413, 0, 0, 2490414, 0, 0, 2490415, 0, 0, 2555904, 2, 65547, 2555905, 2, 65537, 2555906, 2, 65548, 2555907, 2, 65548, 2555908, 2, 262145, 2555909, 2, 262146, 2555910, 2, 65537, 2555911, 2, 262146, 2555912, 2, 65537, 2555913, 2, 65548, 2555914, 2, 262145, 2555915, 2, 262145, 2555916, 2, 262146, 2555917, 2, 262144, 2555918, 2, 262146, 2555919, 2, 262144, 2555920, 2, 262144, 2555921, 2, 65537, 2555922, 2, 65537, 2555923, 2, 65537, 2555924, 2, 262145, 2555925, 2, 65537, 2555926, 2, 65549, 2555927, 0, 0, 2555928, 0, 0, 2555929, 0, 0, 2555930, 0, 0, 2555931, 0, 0, 2555932, 0, 0, 2555933, 0, 0, 2555934, 0, 0, 2555935, 0, 0, 2555936, 0, 0, 2555937, 0, 0, 2555938, 2, 65547, 2555939, 2, 65537, 2555940, 2, 262144, 2555941, 2, 65548, 2555942, 2, 65549, 2555943, 0, 0, 2555944, 0, 0, 2555945, 0, 0, 2555946, 0, 0, 2555947, 0, 0, 2555948, 0, 1, 2555949, 0, 2, 2555950, 0, 3, 2555951, 0, 0, 2621440, 2, 65547, 2621441, 2, 262146, 2621442, 2, 262145, 2621443, 2, 65537, 2621444, 2, 262146, 2621445, 2, 65548, 2621446, 2, 262145, 2621447, 2, 65548, 2621448, 2, 262146, 2621449, 2, 65537, 2621450, 2, 262146, 2621451, 2, 65548, 2621452, 2, 262145, 2621453, 2, 262144, 2621454, 2, 262146, 2621455, 2, 262146, 2621456, 2, 262144, 2621457, 2, 65537, 2621458, 2, 262146, 2621459, 2, 65537, 2621460, 2, 262144, 2621461, 2, 262145, 2621462, 2, 131088, 2621463, 2, 12, 2621464, 2, 1, 2621465, 2, 1, 2621466, 2, 12, 2621467, 2, 1, 2621468, 2, 1, 2621469, 2, 12, 2621470, 2, 12, 2621471, 2, 1, 2621472, 2, 1, 2621473, 2, 1, 2621474, 2, 131078, 2621475, 2, 65537, 2621476, 2, 65548, 2621477, 2, 65537, 2621478, 2, 131088, 2621479, 2, 12, 2621480, 2, 12, 2621481, 2, 12, 2621482, 2, 13, 2621483, 0, 0, 2621484, 0, 3, 2621485, 0, 0, 2621486, 0, 2, 2621487, 0, 0, 2686976, 2, 65547, 2686977, 2, 262146, 2686978, 2, 262144, 2686979, 2, 65537, 2686980, 2, 262145, 2686981, 2, 262145, 2686982, 2, 65548, 2686983, 2, 262144, 2686984, 2, 65548, 2686985, 2, 262144, 2686986, 2, 262145, 2686987, 2, 65537, 2686988, 2, 262144, 2686989, 2, 65548, 2686990, 2, 65548, 2686991, 2, 262146, 2686992, 2, 262144, 2686993, 2, 262146, 2686994, 2, 65537, 2686995, 2, 262144, 2686996, 2, 262146, 2686997, 2, 262144, 2686998, 2, 262146, 2686999, 2, 65537, 2687000, 2, 262145, 2687001, 2, 65548, 2687002, 2, 262146, 2687003, 2, 262146, 2687004, 2, 65548, 2687005, 2, 262144, 2687006, 2, 262144, 2687007, 2, 65537, 2687008, 2, 262145, 2687009, 2, 65537, 2687010, 2, 65537, 2687011, 2, 65537, 2687012, 2, 65548, 2687013, 2, 65548, 2687014, 2, 262144, 2687015, 2, 262145, 2687016, 2, 65548, 2687017, 2, 262146, 2687018, 2, 65538, 2687019, 0, 0, 2687020, 0, 0, 2687021, 0, 0, 2687022, 0, 0, 2687023, 0, 0, 2752512, 2, 65547, 2752513, 2, 262146, 2752514, 2, 262146, 2752515, 2, 262145, 2752516, 2, 65537, 2752517, 2, 65537, 2752518, 2, 262145, 2752519, 2, 262146, 2752520, 2, 262144, 2752521, 2, 262146, 2752522, 2, 262145, 2752523, 2, 262145, 2752524, 2, 262146, 2752525, 2, 65548, 2752526, 2, 262145, 2752527, 2, 262144, 2752528, 2, 262146, 2752529, 2, 262145, 2752530, 2, 65537, 2752531, 2, 65548, 2752532, 2, 262146, 2752533, 2, 262145, 2752534, 2, 262144, 2752535, 2, 65537, 2752536, 2, 65548, 2752537, 2, 65537, 2752538, 2, 262146, 2752539, 2, 65548, 2752540, 2, 262144, 2752541, 2, 262145, 2752542, 2, 65548, 2752543, 2, 65537, 2752544, 2, 262145, 2752545, 2, 65537, 2752546, 2, 65537, 2752547, 2, 262145, 2752548, 2, 262145, 2752549, 2, 262145, 2752550, 2, 262146, 2752551, 2, 262144, 2752552, 2, 65537, 2752553, 2, 262146, 2752554, 2, 131088, 2752555, 2, 12, 2752556, 2, 12, 2752557, 2, 1, 2752558, 2, 1, 2752559, 2, 2, 2818048, 2, 65536, 2818049, 2, 262146, 2818050, 2, 65537, 2818051, 2, 65537, 2818052, 2, 65537, 2818053, 2, 65537, 2818054, 2, 262145, 2818055, 2, 65537, 2818056, 2, 262145, 2818057, 2, 262146, 2818058, 2, 65548, 2818059, 2, 262146, 2818060, 2, 262144, 2818061, 2, 65548, 2818062, 2, 262146, 2818063, 2, 262146, 2818064, 2, 65537, 2818065, 2, 262145, 2818066, 2, 262144, 2818067, 2, 65548, 2818068, 2, 262145, 2818069, 2, 262146, 2818070, 2, 262146, 2818071, 2, 262145, 2818072, 2, 262144, 2818073, 2, 65537, 2818074, 2, 65548, 2818075, 2, 262145, 2818076, 2, 65537, 2818077, 2, 262145, 2818078, 2, 262144, 2818079, 2, 262146, 2818080, 2, 262146, 2818081, 2, 65537, 2818082, 2, 262146, 2818083, 2, 65548, 2818084, 2, 65548, 2818085, 2, 65548, 2818086, 2, 262146, 2818087, 2, 262144, 2818088, 2, 262145, 2818089, 2, 262144, 2818090, 2, 262145, 2818091, 2, 262144, 2818092, 2, 65548, 2818093, 2, 262145, 2818094, 2, 65548, 2818095, 2, 65549, 2883584, 2, 65547, 2883585, 2, 262144, 2883586, 2, 65537, 2883587, 2, 262146, 2883588, 2, 65548, 2883589, 2, 65548, 2883590, 2, 262146, 2883591, 2, 262146, 2883592, 2, 262145, 2883593, 2, 262144, 2883594, 2, 65548, 2883595, 2, 262144, 2883596, 2, 262145, 2883597, 2, 262144, 2883598, 2, 262146, 2883599, 2, 262145, 2883600, 2, 65537, 2883601, 2, 262145, 2883602, 2, 262144, 2883603, 2, 262145, 2883604, 2, 262145, 2883605, 2, 65537, 2883606, 2, 262146, 2883607, 2, 65537, 2883608, 2, 65537, 2883609, 2, 262146, 2883610, 2, 65537, 2883611, 2, 65548, 2883612, 2, 65548, 2883613, 2, 65548, 2883614, 2, 262146, 2883615, 2, 262144, 2883616, 2, 65537, 2883617, 2, 262144, 2883618, 2, 65537, 2883619, 2, 65537, 2883620, 2, 65537, 2883621, 2, 65548, 2883622, 2, 65548, 2883623, 2, 65548, 2883624, 2, 65548, 2883625, 2, 262146, 2883626, 2, 262145, 2883627, 2, 262145, 2883628, 2, 262145, 2883629, 2, 262146, 2883630, 2, 65537, 2883631, 2, 65538, 2949120, 2, 65547, 2949121, 2, 262146, 2949122, 2, 262145, 2949123, 2, 262144, 2949124, 2, 262145, 2949125, 2, 65537, 2949126, 2, 262146, 2949127, 2, 262145, 2949128, 2, 262146, 2949129, 2, 65548, 2949130, 2, 262145, 2949131, 2, 262146, 2949132, 2, 65537, 2949133, 2, 262144, 2949134, 2, 262146, 2949135, 2, 65548, 2949136, 2, 65548, 2949137, 2, 262144, 2949138, 2, 262145, 2949139, 2, 65537, 2949140, 2, 262144, 2949141, 2, 262145, 2949142, 2, 262146, 2949143, 2, 65537, 2949144, 2, 262144, 2949145, 2, 65548, 2949146, 2, 65537, 2949147, 2, 262144, 2949148, 2, 262145, 2949149, 2, 65537, 2949150, 2, 65537, 2949151, 2, 65548, 2949152, 2, 65548, 2949153, 2, 262145, 2949154, 2, 262145, 2949155, 2, 262145, 2949156, 2, 65548, 2949157, 2, 262145, 2949158, 2, 262145, 2949159, 2, 65537, 2949160, 2, 262146, 2949161, 2, 262145, 2949162, 2, 262145, 2949163, 2, 65537, 2949164, 2, 262145, 2949165, 2, 65548, 2949166, 2, 262145, 2949167, 2, 65538, 3014656, 2, 65547, 3014657, 2, 262146, 3014658, 2, 262144, 3014659, 2, 65537, 3014660, 2, 262146, 3014661, 2, 262144, 3014662, 2, 65548, 3014663, 2, 262145, 3014664, 2, 65537, 3014665, 2, 262145, 3014666, 2, 262145, 3014667, 2, 262144, 3014668, 2, 65548, 3014669, 2, 262146, 3014670, 2, 65537, 3014671, 2, 262146, 3014672, 2, 262144, 3014673, 2, 65548, 3014674, 2, 262145, 3014675, 2, 262144, 3014676, 2, 65548, 3014677, 2, 65537, 3014678, 2, 262146, 3014679, 2, 262145, 3014680, 2, 65537, 3014681, 2, 65537, 3014682, 2, 65548, 3014683, 2, 65537, 3014684, 2, 262145, 3014685, 2, 262146, 3014686, 2, 65537, 3014687, 2, 65548, 3014688, 2, 262144, 3014689, 2, 262146, 3014690, 2, 262146, 3014691, 2, 262146, 3014692, 2, 262145, 3014693, 2, 262144, 3014694, 2, 262144, 3014695, 2, 65548, 3014696, 2, 262145, 3014697, 2, 65548, 3014698, 2, 262146, 3014699, 2, 262144, 3014700, 2, 65548, 3014701, 2, 65548, 3014702, 2, 262145, 3014703, 2, 65549, 3080192, 2, 65547, 3080193, 2, 65548, 3080194, 2, 65537, 3080195, 2, 262145, 3080196, 2, 65537, 3080197, 2, 65537, 3080198, 2, 65537, 3080199, 2, 65537, 3080200, 2, 262146, 3080201, 2, 65548, 3080202, 2, 65537, 3080203, 2, 262145, 3080204, 2, 262144, 3080205, 2, 262144, 3080206, 2, 65537, 3080207, 2, 65537, 3080208, 2, 262146, 3080209, 2, 65548, 3080210, 2, 262144, 3080211, 2, 65537, 3080212, 2, 262144, 3080213, 2, 65548, 3080214, 2, 262145, 3080215, 2, 262145, 3080216, 2, 65537, 3080217, 2, 65548, 3080218, 2, 262144, 3080219, 2, 262145, 3080220, 2, 262145, 3080221, 2, 262145, 3080222, 2, 65548, 3080223, 2, 262146, 3080224, 2, 65537, 3080225, 2, 65537, 3080226, 2, 65537, 3080227, 2, 65548, 3080228, 2, 65537, 3080229, 2, 262145, 3080230, 2, 262146, 3080231, 2, 262144, 3080232, 2, 262145, 3080233, 2, 65537, 3080234, 2, 65548, 3080235, 2, 65548, 3080236, 2, 262145, 3080237, 2, 262144, 3080238, 2, 262146, 3080239, 2, 65549, 3145728, 2, 65536, 3145729, 2, 65537, 3145730, 2, 65548, 3145731, 2, 65548, 3145732, 2, 65548, 3145733, 2, 65548, 3145734, 2, 65537, 3145735, 2, 262145, 3145736, 2, 262146, 3145737, 2, 262146, 3145738, 2, 262144, 3145739, 2, 65537, 3145740, 2, 65537, 3145741, 2, 65537, 3145742, 2, 65548, 3145743, 2, 65537, 3145744, 2, 262145, 3145745, 2, 65537, 3145746, 2, 262144, 3145747, 2, 65537, 3145748, 2, 262146, 3145749, 2, 262146, 3145750, 2, 262144, 3145751, 2, 262146, 3145752, 2, 65537, 3145753, 2, 262146, 3145754, 2, 262144, 3145755, 2, 262145, 3145756, 2, 262144, 3145757, 2, 65537, 3145758, 2, 65537, 3145759, 2, 65548, 3145760, 2, 65548, 3145761, 2, 65537, 3145762, 2, 65537, 3145763, 2, 262144, 3145764, 2, 262146, 3145765, 2, 262146, 3145766, 2, 262146, 3145767, 2, 262146, 3145768, 2, 262145, 3145769, 2, 262144, 3145770, 2, 65537, 3145771, 2, 262146, 3145772, 2, 262146, 3145773, 2, 65548, 3145774, 2, 65548, 3145775, 2, 65549, 3211264, 2, 65547, 3211265, 2, 262144, 3211266, 2, 262144, 3211267, 2, 65537, 3211268, 2, 262144, 3211269, 2, 65548, 3211270, 2, 65548, 3211271, 2, 65537, 3211272, 2, 262146, 3211273, 2, 262146, 3211274, 2, 262146, 3211275, 2, 65548, 3211276, 2, 65537, 3211277, 2, 65548, 3211278, 2, 262144, 3211279, 2, 262144, 3211280, 2, 65548, 3211281, 2, 262144, 3211282, 2, 262145, 3211283, 2, 262144, 3211284, 2, 262144, 3211285, 2, 65548, 3211286, 2, 262146, 3211287, 2, 262146, 3211288, 2, 262144, 3211289, 2, 65548, 3211290, 2, 65548, 3211291, 2, 262146, 3211292, 2, 65537, 3211293, 2, 262145, 3211294, 2, 65537, 3211295, 2, 65537, 3211296, 2, 65537, 3211297, 2, 262144, 3211298, 2, 262144, 3211299, 2, 65537, 3211300, 2, 262144, 3211301, 2, 262145, 3211302, 2, 262144, 3211303, 2, 262144, 3211304, 2, 262145, 3211305, 2, 65548, 3211306, 2, 262146, 3211307, 2, 262146, 3211308, 2, 262146, 3211309, 2, 262144, 3211310, 2, 262146, 3211311, 2, 65549, 3276800, 2, 65536, 3276801, 2, 262146, 3276802, 2, 65537, 3276803, 2, 65537, 3276804, 2, 65537, 3276805, 2, 262146, 3276806, 2, 262144, 3276807, 2, 262145, 3276808, 2, 262144, 3276809, 2, 262144, 3276810, 2, 262145, 3276811, 2, 262145, 3276812, 2, 65537, 3276813, 2, 65548, 3276814, 2, 65548, 3276815, 2, 65548, 3276816, 2, 262146, 3276817, 2, 262146, 3276818, 2, 262145, 3276819, 2, 65548, 3276820, 2, 65537, 3276821, 2, 262144, 3276822, 2, 262145, 3276823, 2, 262145, 3276824, 2, 262144, 3276825, 2, 262145, 3276826, 2, 262144, 3276827, 2, 262145, 3276828, 2, 262146, 3276829, 2, 262144, 3276830, 2, 65548, 3276831, 2, 262145, 3276832, 2, 262145, 3276833, 2, 262146, 3276834, 2, 262146, 3276835, 2, 65537, 3276836, 2, 262146, 3276837, 2, 262146, 3276838, 2, 262145, 3276839, 2, 262146, 3276840, 2, 262144, 3276841, 2, 65537, 3276842, 2, 262146, 3276843, 2, 65537, 3276844, 2, 262145, 3276845, 2, 65537, 3276846, 2, 262145, 3276847, 2, 65549, 3342336, 2, 131083, 3342337, 2, 131084, 3342338, 2, 131073, 3342339, 2, 131073, 3342340, 2, 131084, 3342341, 2, 131084, 3342342, 2, 131073, 3342343, 2, 131084, 3342344, 2, 131084, 3342345, 2, 131084, 3342346, 2, 131073, 3342347, 2, 131084, 3342348, 2, 131084, 3342349, 2, 131084, 3342350, 2, 131073, 3342351, 2, 131084, 3342352, 2, 131073, 3342353, 2, 131073, 3342354, 2, 131073, 3342355, 2, 131084, 3342356, 2, 131073, 3342357, 2, 131073, 3342358, 2, 131073, 3342359, 2, 131073, 3342360, 2, 131084, 3342361, 2, 131084, 3342362, 2, 131084, 3342363, 2, 131084, 3342364, 2, 131073, 3342365, 2, 131084, 3342366, 2, 131073, 3342367, 2, 131073, 3342368, 2, 131084, 3342369, 2, 131073, 3342370, 2, 131084, 3342371, 2, 131084, 3342372, 2, 131084, 3342373, 2, 131084, 3342374, 2, 131084, 3342375, 2, 131073, 3342376, 2, 131084, 3342377, 2, 131084, 3342378, 2, 131084, 3342379, 2, 131084, 3342380, 2, 131073, 3342381, 2, 131073, 3342382, 2, 131084, 3342383, 2, 131085 )

[node name="Foreground" type="TileMap" parent="."]
tile_set = ExtResource( 3 )
cell_size = Vector2( 16, 16 )
collision_layer = 524289
collision_mask = 524289
format = 1
tile_data = PoolIntArray( 0, 0, 65548, 1, 0, 65537, 2, 0, 65559, 3, 0, 65548, 4, 0, 65537, 5, 0, 65548, 6, 0, 65537, 7, 0, 65548, 8, 0, 65559, 9, 0, 65548, 10, 0, 65560, 13, 0, 65558, 14, 0, 65559, 15, 0, 65559, 16, 0, 65559, 17, 0, 65537, 18, 0, 65548, 19, 0, 65537, 20, 0, 65548, 21, 0, 65537, 22, 0, 65537, 23, 0, 65548, 24, 0, 65548, 25, 0, 65559, 26, 0, 65548, 27, 0, 65548, 28, 0, 65559, 29, 0, 65548, 30, 0, 65538, 31, 1, 65539, 32, 0, 65547, 33, 0, 65537, 34, 0, 65548, 35, 0, 65537, 36, 0, 65537, 37, 0, 65548, 38, 0, 65559, 39, 0, 65549, 40, 1, 65561, 41, 0, 65547, 42, 0, 65537, 43, 0, 65537, 44, 0, 65537, 45, 0, 65548, 46, 0, 65548, 47, 0, 65537, 65536, 0, 65548, 65537, 0, 65559, 65538, 0, 65559, 65539, 0, 65559, 65540, 0, 65548, 65541, 0, 65537, 65542, 0, 65548, 65543, 0, 65563, 65544, 0, 131095, 65545, 0, 131073, 65546, 0, 131074, 65549, 0, 131083, 65550, 0, 131073, 65551, 0, 131084, 65552, 0, 65553, 65553, 0, 65548, 65554, 0, 65537, 65555, 0, 65548, 65556, 0, 65548, 65557, 0, 65548, 65558, 0, 65559, 65559, 0, 65548, 65560, 0, 65559, 65561, 0, 65559, 65562, 0, 65559, 65563, 0, 65548, 65564, 0, 65548, 65565, 0, 65537, 65566, 0, 65549, 65567, 1, 65561, 65568, 0, 131094, 65569, 0, 65564, 65570, 0, 65537, 65571, 0, 65537, 65572, 0, 65548, 65573, 0, 65537, 65574, 0, 65563, 65575, 0, 131085, 65576, 1, 65561, 65577, 0, 65536, 65578, 0, 65559, 65579, 0, 65537, 65580, 0, 65548, 65581, 0, 65537, 65582, 0, 65537, 65583, 0, 65548, 131072, 0, 65548, 131073, 0, 65548, 131074, 0, 65559, 131075, 0, 65548, 131076, 0, 65563, 131077, 0, 131095, 131078, 0, 131095, 131079, 0, 131096, 131088, 0, 131094, 131089, 0, 131073, 131090, 0, 131095, 131091, 0, 131073, 131092, 0, 65564, 131093, 0, 65548, 131094, 0, 65559, 131095, 0, 65548, 131096, 0, 65559, 131097, 0, 65548, 131098, 0, 65559, 131099, 0, 65559, 131100, 0, 65559, 131101, 0, 65537, 131102, 0, 65549, 131103, 1, 65539, 131105, 0, 131083, 131106, 0, 131095, 131107, 0, 131084, 131108, 0, 131073, 131109, 0, 131084, 131110, 0, 131096, 131112, 1, 65561, 131113, 0, 65547, 131114, 0, 65537, 131115, 0, 65537, 131116, 0, 65537, 131117, 0, 65559, 131118, 0, 65559, 131119, 0, 65548, 196608, 0, 65559, 196609, 0, 65548, 196610, 0, 65548, 196611, 0, 65559, 196612, 0, 65560, 196628, 0, 131094, 196629, 0, 65553, 196630, 0, 65548, 196631, 0, 65552, 196632, 0, 131073, 196633, 0, 131095, 196634, 0, 131095, 196635, 0, 131095, 196636, 0, 131095, 196637, 0, 131073, 196638, 0, 131096, 196639, 1, 65561, 196648, 1, 65561, 196649, 0, 131083, 196650, 0, 131095, 196651, 0, 131095, 196652, 0, 131084, 196653, 0, 131084, 196654, 0, 131073, 196655, 0, 131073, 262144, 0, 65537, 262145, 0, 65548, 262146, 0, 65563, 262147, 0, 131084, 262148, 0, 131096, 262165, 0, 131094, 262166, 0, 131073, 262167, 0, 131096, 262168, 1, 196608, 262169, 1, 196620, 262170, 1, 196631, 262171, 1, 196609, 262172, 1, 196609, 262173, 1, 196620, 262174, 1, 196620, 262175, 1, 196615, 262179, 4, 0, 262180, 4, 0, 262184, 1, 196634, 262185, 1, 196609, 262186, 1, 196609, 262187, 1, 196631, 262188, 1, 196620, 262189, 1, 196620, 262190, 1, 196620, 262191, 1, 196631, 327680, 0, 65548, 327681, 0, 65537, 327682, 0, 65538, 327697, 4, 0, 327698, 4, 0, 327715, 4, 0, 327716, 4, 0, 327726, 2, 11, 327727, 2, 13, 393216, 0, 65537, 393217, 0, 65548, 393218, 0, 65538, 393233, 4, 0, 393234, 4, 0, 393257, 4, 0, 393258, 4, 0, 393261, 2, 0, 393262, 2, 131078, 393263, 2, 65549, 458752, 0, 65548, 458753, 0, 65548, 458754, 0, 65538, 458793, 4, 0, 458794, 4, 0, 458796, 2, 22, 458797, 2, 131089, 458798, 2, 65559, 458799, 2, 65560, 524288, 0, 65537, 524289, 0, 65563, 524290, 0, 131096, 524298, 1, 3, 524301, 1, 25, 524321, 1, 14, 524326, 1, 25, 524328, 6, 0, 524332, 2, 131072, 524333, 2, 131095, 524334, 2, 131095, 524335, 2, 131096, 589824, 0, 65559, 589825, 0, 65538, 589831, 6, 0, 589832, 0, 0, 589833, 0, 13, 589834, 1, 65550, 589837, 1, 65539, 589844, 0, 0, 589845, 0, 1, 589846, 0, 23, 589847, 0, 2, 589848, 1, 26, 589849, 1, 196620, 589850, 1, 196631, 589851, 1, 196620, 589852, 1, 196631, 589853, 1, 196631, 589854, 1, 196620, 589855, 1, 196631, 589856, 1, 196609, 589857, 1, 262162, 589862, 1, 262159, 589863, 1, 196609, 589864, 1, 196620, 589865, 1, 196609, 589866, 1, 196631, 589867, 1, 196620, 589868, 1, 196609, 589869, 1, 196631, 589870, 1, 196620, 589871, 1, 196620, 655360, 0, 65548, 655361, 0, 65538, 655367, 0, 11, 655368, 0, 131078, 655369, 0, 65538, 655370, 1, 65561, 655373, 1, 65550, 655374, 0, 22, 655375, 0, 2, 655380, 0, 65547, 655381, 0, 65537, 655382, 0, 65559, 655383, 0, 65560, 655384, 1, 65561, 655385, 0, 22, 655386, 0, 1, 655387, 0, 1, 655388, 0, 12, 655389, 0, 1, 655390, 0, 12, 655391, 0, 12, 655392, 0, 13, 655393, 1, 65550, 655398, 1, 65561, 655399, 0, 22, 655400, 0, 1, 655401, 0, 1, 655402, 0, 1, 655403, 0, 23, 655404, 0, 12, 655405, 0, 12, 655406, 0, 23, 655407, 0, 23, 720896, 0, 65559, 720897, 0, 65549, 720900, 4, 0, 720901, 4, 0, 720903, 0, 131094, 720904, 0, 65542, 720905, 0, 65538, 720906, 1, 65550, 720909, 1, 65539, 720910, 0, 65547, 720911, 0, 65560, 720914, 0, 11, 720915, 0, 12, 720916, 0, 131100, 720917, 0, 65537, 720918, 0, 65559, 720919, 0, 65538, 720920, 1, 131086, 720921, 0, 65547, 720922, 0, 65559, 720923, 0, 65537, 720924, 0, 65537, 720925, 0, 65537, 720926, 0, 65548, 720927, 0, 65537, 720928, 0, 65549, 720929, 1, 65539, 720934, 1, 65539, 720935, 0, 65536, 720936, 0, 65559, 720937, 0, 65559, 720938, 0, 65537, 720939, 0, 65548, 720940, 0, 65537, 720941, 0, 65559, 720942, 0, 65548, 720943, 0, 65537, 786432, 0, 65559, 786433, 0, 65538, 786436, 4, 0, 786437, 4, 0, 786440, 0, 131083, 786441, 0, 131096, 786442, 1, 131075, 786445, 1, 65539, 786446, 0, 65558, 786447, 0, 131088, 786448, 0, 12, 786449, 0, 12, 786450, 0, 131089, 786451, 0, 65559, 786452, 0, 65559, 786453, 0, 65537, 786454, 0, 65548, 786455, 0, 131077, 786456, 0, 23, 786457, 0, 131089, 786458, 0, 65548, 786459, 0, 65537, 786460, 0, 65537, 786461, 0, 65559, 786462, 0, 65559, 786463, 0, 65559, 786464, 0, 131077, 786465, 0, 2, 786470, 0, 11, 786471, 0, 131078, 786472, 0, 65537, 786473, 0, 65548, 786474, 0, 65548, 786475, 0, 65548, 786476, 0, 65537, 786477, 0, 65537, 786478, 0, 65559, 786479, 0, 65548, 851968, 0, 65537, 851969, 0, 65560, 851970, 2, 3, 851981, 1, 65539, 851982, 0, 65558, 851983, 0, 65563, 851984, 0, 131073, 851985, 0, 131073, 851986, 0, 131073, 851987, 0, 131095, 851988, 0, 65564, 851989, 0, 65559, 851990, 0, 65559, 851991, 0, 65548, 851992, 0, 65559, 851993, 0, 65548, 851994, 0, 65548, 851995, 0, 65537, 851996, 0, 65537, 851997, 0, 65548, 851998, 0, 65548, 851999, 0, 65548, 852000, 0, 65537, 852001, 0, 65538, 852006, 0, 65536, 852007, 0, 65559, 852008, 0, 65548, 852009, 0, 65559, 852010, 0, 65537, 852011, 0, 65548, 852012, 0, 65559, 852013, 0, 65548, 852014, 0, 65548, 852015, 0, 65537, 917504, 0, 65552, 917505, 0, 131074, 917506, 2, 65561, 917517, 1, 131097, 917518, 0, 131094, 917519, 0, 131096, 917524, 0, 131094, 917525, 0, 131084, 917526, 0, 65553, 917527, 0, 65559, 917528, 0, 65537, 917529, 0, 65537, 917530, 0, 65548, 917531, 0, 65563, 917532, 0, 131073, 917533, 0, 131095, 917534, 0, 131095, 917535, 0, 65564, 917536, 0, 65537, 917537, 0, 65549, 917542, 0, 65547, 917543, 0, 65548, 917544, 0, 65559, 917545, 0, 65548, 917546, 0, 65548, 917547, 0, 65537, 917548, 0, 65559, 917549, 0, 65559, 917550, 0, 65559, 917551, 0, 65548, 983040, 0, 65560, 983041, 2, 0, 983042, 2, 131091, 983043, 2, 1, 983044, 2, 2, 983057, 4, 0, 983058, 4, 0, 983062, 0, 131094, 983063, 0, 131095, 983064, 0, 131073, 983065, 0, 131095, 983066, 0, 131073, 983067, 0, 131074, 983071, 0, 131083, 983072, 0, 131084, 983073, 0, 65543, 983078, 0, 65547, 983079, 0, 65559, 983080, 0, 65537, 983081, 0, 65548, 983082, 0, 65548, 983083, 0, 65548, 983084, 0, 65537, 983085, 0, 65537, 983086, 0, 65548, 983087, 0, 65548, 1048576, 0, 65560, 1048577, 2, 65536, 1048578, 2, 65537, 1048579, 2, 65563, 1048580, 2, 196613, 1048581, 2, 196631, 1048582, 2, 196632, 1048593, 4, 0, 1048594, 4, 0, 1048602, 1, 65550, 1048609, 0, 65539, 1048614, 0, 65547, 1048615, 0, 65548, 1048616, 0, 65559, 1048617, 0, 65559, 1048618, 0, 65559, 1048619, 0, 65537, 1048620, 0, 65537, 1048621, 0, 65548, 1048622, 0, 65548, 1048623, 0, 65537, 1114112, 0, 65538, 1114113, 2, 131083, 1114114, 2, 131084, 1114115, 2, 131074, 1114116, 0, 22, 1114117, 0, 12, 1114118, 0, 23, 1114119, 0, 1, 1114120, 0, 12, 1114121, 0, 13, 1114122, 1, 3, 1114125, 6, 0, 1114138, 1, 65561, 1114142, 4, 0, 1114143, 4, 0, 1114145, 0, 65561, 1114150, 0, 65558, 1114151, 0, 65537, 1114152, 0, 65537, 1114153, 0, 65559, 1114154, 0, 65537, 1114155, 0, 65548, 1114156, 0, 65559, 1114157, 0, 65548, 1114158, 0, 65537, 1114159, 0, 65537, 1179648, 0, 131088, 1179649, 0, 1, 1179650, 0, 1, 1179651, 0, 23, 1179652, 0, 131089, 1179653, 0, 65537, 1179654, 0, 65548, 1179655, 0, 65548, 1179656, 0, 65559, 1179657, 0, 65538, 1179658, 1, 65550, 1179661, 1, 3, 1179674, 1, 65539, 1179678, 4, 0, 1179679, 4, 0, 1179681, 0, 65550, 1179686, 0, 65547, 1179687, 0, 65548, 1179688, 0, 65559, 1179689, 0, 65548, 1179690, 0, 65537, 1179691, 0, 65548, 1179692, 0, 65563, 1179693, 0, 131073, 1179694, 0, 131073, 1179695, 0, 131073, 1245184, 0, 131073, 1245185, 0, 131084, 1245186, 0, 131084, 1245187, 0, 131073, 1245188, 0, 131095, 1245189, 0, 131084, 1245190, 0, 131073, 1245191, 0, 131073, 1245192, 0, 131084, 1245193, 0, 131074, 1245194, 1, 131075, 1245197, 1, 196623, 1245198, 1, 196609, 1245199, 1, 196631, 1245200, 1, 196631, 1245201, 1, 196609, 1245202, 1, 196609, 1245203, 1, 196631, 1245204, 1, 196609, 1245205, 1, 196631, 1245206, 1, 29, 1245209, 1, 196630, 1245210, 1, 262151, 1245212, 6, 0, 1245217, 0, 65561, 1245222, 0, 65536, 1245223, 0, 65559, 1245224, 0, 65548, 1245225, 0, 65537, 1245226, 0, 65559, 1245227, 0, 65537, 1245228, 0, 65560, 1245229, 1, 4, 1245230, 1, 196609, 1245231, 1, 196631, 1310720, 1, 65550, 1310742, 1, 65539, 1310746, 1, 196612, 1310747, 1, 196631, 1310748, 1, 196610, 1310751, 0, 26, 1310752, 0, 196620, 1310753, 0, 196615, 1310758, 0, 131094, 1310759, 0, 131073, 1310760, 0, 131073, 1310761, 0, 65542, 1310762, 0, 65548, 1310763, 0, 65548, 1310764, 0, 65549, 1310765, 1, 65550, 1310766, 0, 22, 1310767, 0, 12, 1376256, 1, 65550, 1376258, 6, 0, 1376261, 4, 0, 1376271, 4, 0, 1376273, 4, 0, 1376278, 1, 65539, 1376287, 0, 65539, 1376288, 2, 25, 1376297, 0, 65558, 1376298, 0, 65537, 1376299, 0, 65548, 1376300, 0, 65538, 1376301, 1, 65550, 1376302, 0, 65547, 1376303, 0, 65537, 1441792, 1, 65561, 1441796, 4, 0, 1441798, 4, 0, 1441808, 4, 0, 1441814, 1, 65550, 1441823, 0, 65550, 1441824, 2, 131097, 1441833, 0, 65547, 1441834, 0, 65559, 1441835, 0, 65537, 1441836, 0, 65538, 1441837, 1, 65550, 1441838, 0, 65558, 1441839, 0, 65548, 1507328, 1, 65550, 1507350, 1, 65561, 1507359, 0, 65550, 1507369, 0, 65558, 1507370, 0, 65548, 1507371, 0, 65537, 1507372, 0, 65549, 1507373, 1, 65550, 1507374, 0, 65536, 1507375, 0, 65537, 1572864, 1, 196612, 1572865, 1, 196631, 1572866, 1, 196609, 1572867, 1, 196610, 1572872, 1, 4, 1572873, 1, 196631, 1572874, 1, 196631, 1572875, 1, 196609, 1572876, 1, 196620, 1572877, 1, 196609, 1572878, 1, 196609, 1572879, 1, 30, 1572880, 1, 196631, 1572881, 1, 196610, 1572884, 1, 196619, 1572885, 1, 196609, 1572886, 1, 196616, 1572887, 1, 196631, 1572888, 1, 196620, 1572889, 1, 196620, 1572890, 1, 18, 1572891, 0, 22, 1572892, 0, 2, 1572895, 0, 65561, 1572905, 0, 65558, 1572906, 0, 65537, 1572907, 0, 65548, 1572908, 0, 65538, 1572909, 1, 65561, 1572910, 0, 65536, 1572911, 0, 65559, 1638400, 2, 1, 1638401, 2, 1, 1638402, 2, 1, 1638403, 2, 13, 1638406, 1, 4, 1638407, 1, 196609, 1638408, 1, 196637, 1638415, 1, 65539, 1638426, 1, 65550, 1638427, 0, 65558, 1638428, 0, 65549, 1638431, 0, 65550, 1638441, 0, 131072, 1638442, 0, 131095, 1638443, 0, 65564, 1638444, 0, 65538, 1638445, 1, 65539, 1638446, 0, 65558, 1638447, 0, 65548, 1703936, 2, 65548, 1703937, 2, 65559, 1703938, 2, 65563, 1703939, 2, 131085, 1703942, 1, 65550, 1703946, 4, 0, 1703947, 4, 0, 1703951, 1, 131086, 1703957, 4, 0, 1703958, 4, 0, 1703962, 1, 65539, 1703963, 0, 131083, 1703964, 0, 131074, 1703967, 0, 131086, 1703977, 1, 196619, 1703978, 1, 29, 1703979, 0, 131072, 1703980, 0, 131085, 1703981, 1, 65550, 1703982, 0, 131072, 1703983, 0, 131084, 1769472, 2, 65537, 1769473, 2, 65548, 1769474, 2, 65538, 1769478, 1, 65561, 1769482, 4, 0, 1769483, 4, 0, 1769493, 4, 0, 1769494, 4, 0, 1769496, 1, 15, 1769497, 1, 196609, 1769498, 1, 196627, 1769499, 1, 196631, 1769500, 1, 18, 1769514, 1, 196612, 1769515, 1, 30, 1769516, 1, 196620, 1769517, 1, 196616, 1769518, 1, 196631, 1769519, 1, 30, 1835008, 2, 65537, 1835009, 2, 65563, 1835010, 2, 131096, 1835012, 4, 0, 1835014, 1, 65539, 1835016, 6, 0, 1835032, 1, 65561, 1835036, 1, 65561, 1835051, 1, 65561, 1835055, 1, 65539, 1900544, 2, 65559, 1900545, 2, 65538, 1900547, 4, 0, 1900550, 1, 65539, 1900551, 2, 0, 1900552, 2, 13, 1900568, 1, 65550, 1900569, 6, 0, 1900572, 1, 131075, 1900587, 1, 131097, 1900590, 6, 0, 1900591, 1, 65561, 1966080, 2, 131084, 1966081, 2, 131096, 1966086, 1, 65539, 1966087, 2, 131083, 1966088, 2, 131085, 1966103, 1, 26, 1966104, 1, 196627, 1966105, 1, 196610, 1966126, 1, 196630, 1966127, 1, 262173, 2031616, 1, 196631, 2031617, 1, 196631, 2031618, 1, 29, 2031621, 1, 26, 2031622, 1, 196616, 2031623, 1, 196631, 2031624, 1, 196631, 2031625, 1, 196609, 2031626, 1, 196620, 2031627, 1, 196620, 2031628, 1, 196620, 2031629, 1, 196631, 2031630, 1, 196631, 2031631, 1, 196609, 2031632, 1, 196620, 2031633, 1, 196621, 2031636, 1, 196608, 2031637, 1, 196620, 2031638, 1, 196609, 2031639, 1, 196637, 2031649, 4, 0, 2031650, 4, 0, 2031653, 4, 0, 2031654, 4, 0, 2031663, 1, 65561, 2097154, 1, 65561, 2097157, 1, 65539, 2097178, 4, 0, 2097179, 4, 0, 2097185, 4, 0, 2097186, 4, 0, 2097189, 4, 0, 2097190, 4, 0, 2097196, 4, 0, 2097197, 4, 0, 2097199, 1, 65539, 2162690, 1, 65539, 2162693, 1, 65539, 2162714, 4, 0, 2162733, 4, 0, 2162735, 1, 65550, 2228226, 1, 65550, 2228229, 1, 65550, 2228271, 1, 65550, 2293762, 1, 65561, 2293765, 1, 65539, 2293793, 1, 196630, 2293794, 1, 29, 2293797, 1, 15, 2293798, 1, 196621, 2293807, 1, 65539, 2359296, 1, 196609, 2359297, 1, 196620, 2359298, 1, 196626, 2359301, 1, 196612, 2359302, 1, 196631, 2359303, 1, 196631, 2359304, 1, 196609, 2359305, 1, 196620, 2359306, 1, 196620, 2359307, 1, 196620, 2359308, 1, 196620, 2359309, 1, 196631, 2359310, 1, 196620, 2359311, 1, 196609, 2359312, 1, 196620, 2359313, 1, 196620, 2359314, 1, 196620, 2359315, 1, 196631, 2359316, 1, 196631, 2359317, 1, 196631, 2359318, 1, 196631, 2359319, 1, 196631, 2359320, 1, 7, 2359330, 1, 65550, 2359333, 1, 65561, 2359343, 1, 65550, 2424832, 2, 23, 2424833, 2, 13, 2424838, 0, 0, 2424839, 0, 12, 2424840, 0, 23, 2424841, 0, 23, 2424842, 0, 12, 2424843, 0, 23, 2424844, 0, 12, 2424845, 0, 23, 2424846, 0, 12, 2424847, 0, 1, 2424848, 0, 23, 2424849, 0, 12, 2424850, 0, 23, 2424851, 0, 12, 2424852, 0, 23, 2424853, 0, 1, 2424854, 0, 23, 2424855, 0, 2, 2424856, 1, 65550, 2424863, 1, 25, 2424865, 6, 0, 2424866, 1, 65550, 2424869, 1, 65550, 2424870, 6, 0, 2424872, 1, 14, 2424879, 1, 65561, 2490368, 2, 65559, 2490369, 2, 65549, 2490370, 9, 0, 2490374, 0, 65536, 2490375, 0, 65559, 2490376, 0, 65559, 2490377, 0, 65537, 2490378, 0, 65537, 2490379, 0, 65559, 2490380, 0, 65548, 2490381, 0, 65559, 2490382, 0, 65548, 2490383, 0, 65559, 2490384, 0, 65559, 2490385, 0, 65548, 2490386, 0, 65537, 2490387, 0, 65559, 2490388, 0, 65548, 2490389, 0, 65548, 2490390, 0, 65559, 2490391, 0, 65538, 2490392, 1, 65539, 2490396, 1, 26, 2490397, 1, 196620, 2490398, 1, 196609, 2490399, 1, 196637, 2490400, 0, 22, 2490401, 0, 13, 2490402, 1, 65539, 2490405, 1, 65539, 2490406, 0, 11, 2490407, 0, 2, 2490408, 1, 196623, 2490409, 1, 196631, 2490410, 1, 196609, 2490411, 1, 196610, 2490415, 1, 65550, 2555904, 2, 65537, 2555905, 2, 65538, 2555910, 0, 131072, 2555911, 0, 131073, 2555912, 0, 131073, 2555913, 0, 131073, 2555914, 0, 131095, 2555915, 0, 131084, 2555916, 0, 131095, 2555917, 0, 131095, 2555918, 0, 131084, 2555919, 0, 131095, 2555920, 0, 131095, 2555921, 0, 131073, 2555922, 0, 131084, 2555923, 0, 131095, 2555924, 0, 65542, 2555925, 0, 65548, 2555926, 0, 65548, 2555927, 0, 65538, 2555928, 1, 65561, 2555932, 1, 65550, 2555933, 0, 22, 2555934, 0, 1, 2555935, 0, 12, 2555936, 0, 131078, 2555937, 0, 131077, 2555938, 0, 2, 2555941, 0, 11, 2555942, 0, 131089, 2555943, 0, 131088, 2555944, 0, 12, 2555945, 0, 12, 2555946, 0, 12, 2555947, 0, 24, 2555951, 1, 65550, 2621440, 2, 65537, 2621441, 2, 65560, 2621460, 0, 131094, 2621461, 0, 131073, 2621462, 0, 65542, 2621463, 0, 65560, 2621464, 1, 196634, 2621465, 1, 196631, 2621466, 1, 196631, 2621467, 1, 196631, 2621468, 1, 196615, 2621469, 0, 65547, 2621470, 0, 65537, 2621471, 0, 65559, 2621472, 0, 65559, 2621473, 0, 65552, 2621474, 0, 131085, 2621477, 0, 65547, 2621478, 0, 65559, 2621479, 0, 65559, 2621480, 0, 65537, 2621481, 0, 65537, 2621482, 0, 65548, 2621483, 0, 131077, 2621484, 0, 1, 2621485, 0, 1, 2621486, 0, 2, 2621487, 1, 131075, 2686976, 2, 65537, 2686977, 2, 65560, 2686979, 4, 0, 2686980, 4, 0, 2686993, 4, 0, 2686998, 0, 65536, 2686999, 0, 131077, 2687000, 0, 12, 2687001, 0, 1, 2687002, 0, 1, 2687003, 0, 23, 2687004, 0, 1, 2687005, 0, 131100, 2687006, 0, 65559, 2687007, 0, 65559, 2687008, 0, 65559, 2687009, 0, 65549, 2687013, 0, 131083, 2687014, 0, 131084, 2687015, 0, 131084, 2687016, 0, 131073, 2687017, 0, 131084, 2687018, 0, 65542, 2687019, 0, 65537, 2687020, 0, 65537, 2687021, 0, 65559, 2687022, 0, 131088, 2687023, 0, 1, 2752512, 2, 65548, 2752513, 2, 65538, 2752515, 4, 0, 2752516, 4, 0, 2752528, 4, 0, 2752530, 4, 0, 2752532, 9, 0, 2752534, 0, 131094, 2752535, 0, 131095, 2752536, 0, 65542, 2752537, 0, 65537, 2752538, 0, 65548, 2752539, 0, 65548, 2752540, 0, 65559, 2752541, 0, 65559, 2752542, 0, 65559, 2752543, 0, 65548, 2752544, 0, 65563, 2752545, 0, 131085, 2752554, 0, 131094, 2752555, 0, 65542, 2752556, 0, 65548, 2752557, 0, 65537, 2752558, 0, 65559, 2752559, 0, 65559, 2818048, 2, 65537, 2818049, 2, 65560, 2818054, 2, 11, 2818055, 2, 1, 2818056, 2, 12, 2818057, 2, 1, 2818058, 2, 1, 2818059, 2, 12, 2818060, 2, 12, 2818061, 2, 1, 2818062, 2, 24, 2818072, 0, 131094, 2818073, 0, 131084, 2818074, 0, 131073, 2818075, 0, 131095, 2818076, 0, 131073, 2818077, 0, 131073, 2818078, 0, 131095, 2818079, 0, 131073, 2818080, 0, 131096, 2818086, 9, 0, 2818087, 4, 0, 2818088, 4, 0, 2818091, 0, 65536, 2818092, 0, 65559, 2818093, 0, 65559, 2818094, 0, 65537, 2818095, 0, 65548, 2883584, 2, 65548, 2883585, 2, 131088, 2883586, 2, 12, 2883587, 2, 1, 2883588, 2, 23, 2883589, 2, 23, 2883590, 2, 131089, 2883591, 2, 65537, 2883592, 2, 65537, 2883593, 2, 65537, 2883594, 2, 65548, 2883595, 2, 65548, 2883596, 2, 65537, 2883597, 2, 65559, 2883598, 2, 65549, 2883604, 4, 0, 2883606, 4, 0, 2883623, 4, 0, 2883624, 4, 0, 2883627, 0, 65547, 2883628, 0, 65537, 2883629, 0, 65537, 2883630, 0, 65537, 2883631, 0, 65559, 2949120, 2, 65537, 2949121, 2, 65537, 2949122, 2, 65537, 2949123, 2, 65559, 2949124, 2, 65548, 2949125, 2, 65537, 2949126, 2, 65537, 2949127, 2, 65548, 2949128, 2, 65548, 2949129, 2, 65559, 2949130, 2, 65548, 2949131, 2, 65559, 2949132, 2, 65559, 2949133, 2, 65537, 2949134, 2, 131099, 2949135, 2, 1, 2949136, 2, 1, 2949137, 2, 24, 2949141, 4, 0, 2949163, 0, 65558, 2949164, 0, 65559, 2949165, 0, 65548, 2949166, 0, 65537, 2949167, 0, 65559, 3014656, 2, 65559, 3014657, 2, 65548, 3014658, 2, 65548, 3014659, 2, 65548, 3014660, 2, 65559, 3014661, 2, 65559, 3014662, 2, 65548, 3014663, 2, 65537, 3014664, 2, 65548, 3014665, 2, 65559, 3014666, 2, 65548, 3014667, 2, 65548, 3014668, 2, 65548, 3014669, 2, 65559, 3014670, 2, 65537, 3014671, 2, 65559, 3014672, 2, 65537, 3014673, 2, 131077, 3014674, 2, 23, 3014675, 2, 2, 3014699, 0, 65547, 3014700, 0, 65537, 3014701, 0, 65559, 3014702, 0, 65548, 3014703, 0, 65559, 3080192, 2, 65548, 3080193, 2, 65548, 3080194, 2, 65537, 3080195, 2, 65548, 3080196, 2, 65537, 3080197, 2, 65559, 3080198, 2, 65537, 3080199, 2, 65537, 3080200, 2, 65559, 3080201, 2, 65548, 3080202, 2, 65559, 3080203, 2, 65559, 3080204, 2, 65537, 3080205, 2, 65548, 3080206, 2, 65537, 3080207, 2, 65537, 3080208, 2, 65537, 3080209, 2, 65537, 3080210, 2, 65548, 3080211, 2, 131077, 3080212, 2, 12, 3080213, 2, 12, 3080214, 2, 12, 3080215, 2, 23, 3080216, 2, 23, 3080217, 2, 23, 3080218, 2, 23, 3080219, 2, 1, 3080220, 2, 12, 3080221, 2, 1, 3080222, 2, 1, 3080223, 2, 24, 3080233, 2, 0, 3080234, 2, 24, 3080235, 0, 131094, 3080236, 0, 65553, 3080237, 0, 65537, 3080238, 0, 65537, 3080239, 0, 65537, 3145728, 2, 65559, 3145729, 2, 65548, 3145730, 2, 65559, 3145731, 2, 65537, 3145732, 2, 65548, 3145733, 2, 65548, 3145734, 2, 65559, 3145735, 2, 65559, 3145736, 2, 65537, 3145737, 2, 65548, 3145738, 2, 65548, 3145739, 2, 65548, 3145740, 2, 65537, 3145741, 2, 65548, 3145742, 2, 65548, 3145743, 2, 65537, 3145744, 2, 65559, 3145745, 2, 65548, 3145746, 2, 65548, 3145747, 2, 65537, 3145748, 2, 65559, 3145749, 2, 65537, 3145750, 2, 65548, 3145751, 2, 65548, 3145752, 2, 65559, 3145753, 2, 65559, 3145754, 2, 65559, 3145755, 2, 65548, 3145756, 2, 65548, 3145757, 2, 65548, 3145758, 2, 65559, 3145759, 2, 131088, 3145760, 2, 1, 3145761, 2, 24, 3145769, 2, 65547, 3145770, 2, 131088, 3145771, 2, 24, 3145772, 0, 65547, 3145773, 0, 65559, 3145774, 0, 65537, 3145775, 0, 65559, 3211264, 2, 65537, 3211265, 2, 65548, 3211266, 2, 65559, 3211267, 2, 65548, 3211268, 2, 65559, 3211269, 2, 65559, 3211270, 2, 65548, 3211271, 2, 65548, 3211272, 2, 65548, 3211273, 2, 65548, 3211274, 2, 65559, 3211275, 2, 65537, 3211276, 2, 65537, 3211277, 2, 65537, 3211278, 2, 65537, 3211279, 2, 65537, 3211280, 2, 65537, 3211281, 2, 65537, 3211282, 2, 65548, 3211283, 2, 65559, 3211284, 2, 65559, 3211285, 2, 65537, 3211286, 2, 65537, 3211287, 2, 65548, 3211288, 2, 65559, 3211289, 2, 65537, 3211290, 2, 65559, 3211291, 2, 65548, 3211292, 2, 65559, 3211293, 2, 65548, 3211294, 2, 65559, 3211295, 2, 65548, 3211296, 2, 65559, 3211297, 2, 131099, 3211298, 2, 1, 3211299, 2, 1, 3211300, 2, 23, 3211301, 2, 12, 3211302, 2, 1, 3211303, 2, 1, 3211304, 2, 12, 3211305, 2, 131100, 3211306, 2, 65548, 3211307, 2, 65549, 3211308, 0, 131072, 3211309, 0, 65564, 3211310, 0, 65559, 3211311, 0, 65537, 3276800, 2, 65548, 3276801, 2, 65559, 3276802, 2, 65548, 3276803, 2, 65537, 3276804, 2, 65548, 3276805, 2, 65559, 3276806, 2, 65548, 3276807, 2, 65537, 3276808, 2, 65548, 3276809, 2, 65537, 3276810, 2, 65537, 3276811, 2, 65537, 3276812, 2, 65537, 3276813, 2, 65559, 3276814, 2, 65548, 3276815, 2, 65537, 3276816, 2, 65537, 3276817, 2, 65559, 3276818, 2, 65537, 3276819, 2, 65548, 3276820, 2, 65559, 3276821, 2, 65559, 3276822, 2, 65537, 3276823, 2, 65559, 3276824, 2, 65537, 3276825, 2, 65548, 3276826, 2, 65548, 3276827, 2, 65559, 3276828, 2, 65537, 3276829, 2, 65559, 3276830, 2, 65559, 3276831, 2, 65537, 3276832, 2, 65559, 3276833, 2, 65537, 3276834, 2, 65559, 3276835, 2, 65548, 3276836, 2, 65548, 3276837, 2, 65548, 3276838, 2, 65548, 3276839, 2, 65559, 3276840, 2, 65559, 3276841, 2, 65559, 3276842, 2, 65548, 3276843, 2, 131099, 3276844, 2, 13, 3276845, 0, 131072, 3276846, 0, 131084, 3276847, 0, 65542, 3342336, 2, 65559, 3342337, 2, 65559, 3342338, 2, 65559, 3342339, 2, 65537, 3342340, 2, 65537, 3342341, 2, 65537, 3342342, 2, 65537, 3342343, 2, 65559, 3342344, 2, 65548, 3342345, 2, 65537, 3342346, 2, 65537, 3342347, 2, 65537, 3342348, 2, 65559, 3342349, 2, 65548, 3342350, 2, 65559, 3342351, 2, 65537, 3342352, 2, 65548, 3342353, 2, 65559, 3342354, 2, 65559, 3342355, 2, 65548, 3342356, 2, 65537, 3342357, 2, 65548, 3342358, 2, 65537, 3342359, 2, 65537, 3342360, 2, 65559, 3342361, 2, 65559, 3342362, 2, 65537, 3342363, 2, 65559, 3342364, 2, 65548, 3342365, 2, 65559, 3342366, 2, 65559, 3342367, 2, 65559, 3342368, 2, 65559, 3342369, 2, 65537, 3342370, 2, 65537, 3342371, 2, 65559, 3342372, 2, 65548, 3342373, 2, 65537, 3342374, 2, 65537, 3342375, 2, 65548, 3342376, 2, 65548, 3342377, 2, 65537, 3342378, 2, 65548, 3342379, 2, 65559, 3342380, 2, 131099, 3342381, 2, 1, 3342382, 2, 13, 3342383, 0, 65547 )
script = ExtResource( 4 )

[node name="Orb" parent="." instance=ExtResource( 5 )]
position = Vector2( 576, 172 )

[node name="Gate" parent="." instance=ExtResource( 6 )]
position = Vector2( 576, 134 )
rotation = 1.5708
collision_layer = 3
collision_mask = 3

[node name="Gate2" parent="." instance=ExtResource( 6 )]
position = Vector2( 248, 464 )
indicator_index = 1

[node name="Gate3" parent="." instance=ExtResource( 6 )]
position = Vector2( 168, 240 )
indicator_index = 2

[node name="Switch" parent="." instance=ExtResource( 7 )]
position = Vector2( 192, 496 )
scale = Vector2( -1, 1 )

[node name="Switch2" parent="." instance=ExtResource( 7 )]
position = Vector2( 416, 386 )
indicator_index = 1

[node name="Switch3" parent="." instance=ExtResource( 7 )]
position = Vector2( 688, 608 )
indicator_index = 2

[node name="Waterline" parent="." instance=ExtResource( 8 )]
position = Vector2( 0, 624 )
polygon = PoolVector2Array( 0, 0, 768, 0, 768, 208, 0, 208 )

[node name="Trapdoor" parent="." instance=ExtResource( 9 )]
position = Vector2( 192, 128 )

[node name="Trapdoor3" parent="." instance=ExtResource( 9 )]
position = Vector2( 304, 384 )

[node name="Trapdoor4" parent="." instance=ExtResource( 9 )]
position = Vector2( 304, 496 )

[node name="Trapdoor5" parent="." instance=ExtResource( 9 )]
position = Vector2( 480, 384 )

[node name="Trapdoor6" parent="." instance=ExtResource( 9 )]
position = Vector2( 384, 304 )

[node name="Carl" parent="." instance=ExtResource( 10 )]
position = Vector2( 640, 344 )
rotation = 3.14159
scale = Vector2( -1, 1 )
conversation_slug = "levelD"
path_gamemaster = NodePath("..")

[node name="NewLight" parent="." instance=ExtResource( 11 )]
position = Vector2( 192, -16 )
light_colour = Color( 0.435294, 0.682353, 1, 0.376471 )
light_size = 80.0

[node name="AudioStreamPlayer_BGM" type="AudioStreamPlayer" parent="."]
pause_mode = 2
stream = ExtResource( 12 )
bus = "BGM"
[connection signal="pressed" from="Switch" to="Gate" method="toggle"]
[connection signal="pressed" from="Switch2" to="Gate2" method="toggle"]
[connection signal="pressed" from="Switch3" to="Gate3" method="toggle"]
