[gd_scene load_steps=12 format=2]

[ext_resource path="res://scripts/Gamemaster.gd" type="Script" id=1]
[ext_resource path="res://tilesets/tileset_background2.tres" type="TileSet" id=2]
[ext_resource path="res://tilesets/tileset_enhanced3.tres" type="TileSet" id=3]
[ext_resource path="res://scripts/Levelbuilder.gd" type="Script" id=4]
[ext_resource path="res://objects/PhaseBlock.tscn" type="PackedScene" id=5]
[ext_resource path="res://objects/GravityFlipper.tscn" type="PackedScene" id=6]
[ext_resource path="res://objects/Gate.tscn" type="PackedScene" id=7]
[ext_resource path="res://objects/Switch.tscn" type="PackedScene" id=8]
[ext_resource path="res://objects/Orb.tscn" type="PackedScene" id=9]
[ext_resource path="res://objects/CameraZone.tscn" type="PackedScene" id=10]
[ext_resource path="res://music/Voltaic.ogg" type="AudioStream" id=11]

[node name="LevelH" type="Node2D"]
z_index = -1
script = ExtResource( 1 )
path_player_spawn = NodePath("PlayerSpawn")
path_orb = NodePath("Orb")
path_geometry = NodePath("Foreground")
path_bgm = NodePath("../LevelH/AudioStreamPlayer_BGM")
level_slug = "H"

[node name="PlayerSpawn" type="Node2D" parent="."]
position = Vector2( 192, 436 )

[node name="Background" type="TileMap" parent="."]
z_index = -100
tile_set = ExtResource( 2 )
cell_size = Vector2( 16, 16 )
format = 1
tile_data = PoolIntArray( 131074, 0, 0, 131075, 0, 0, 131076, 0, 0, 131077, 0, 0, 131078, 0, 0, 131079, 0, 0, 131080, 0, 0, 131081, 0, 0, 131082, 0, 0, 131083, 0, 0, 131084, 0, 0, 131085, 0, 0, 131086, 0, 0, 131087, 0, 0, 131088, 0, 0, 131089, 0, 0, 131090, 0, 0, 131091, 0, 0, 131092, 0, 0, 131093, 0, 0, 131094, 0, 0, 131095, 0, 0, 131096, 0, 0, 131097, 0, 0, 131098, 0, 0, 131099, 0, 0, 131100, 0, 0, 131101, 0, 0, 131102, 0, 0, 131103, 0, 0, 131104, 0, 0, 131105, 0, 0, 131106, 0, 0, 131107, 0, 0, 131108, 0, 0, 131109, 0, 0, 131110, 0, 0, 196610, 0, 0, 196611, 0, 0, 196612, 0, 3, 196613, 0, 0, 196614, 0, 2, 196615, 0, 3, 196616, 0, 2, 196617, 0, 0, 196618, 0, 0, 196619, 0, 3, 196620, 0, 0, 196621, 0, 2, 196622, 0, 0, 196623, 0, 0, 196624, 0, 2, 196625, 0, 0, 196626, 0, 2, 196627, 0, 3, 196628, 0, 1, 196629, 0, 2, 196630, 0, 3, 196631, 0, 0, 196632, 0, 1, 196633, 0, 2, 196634, 0, 1, 196635, 0, 3, 196636, 0, 3, 196637, 0, 3, 196638, 0, 1, 196639, 0, 0, 196640, 0, 2, 196641, 0, 0, 196642, 0, 1, 196643, 0, 1, 196644, 0, 3, 196645, 0, 0, 196646, 0, 0, 262146, 0, 0, 262147, 0, 3, 262148, 0, 1, 262149, 0, 1, 262150, 0, 3, 262151, 0, 3, 262152, 0, 2, 262153, 0, 0, 262154, 0, 2, 262155, 0, 0, 262156, 0, 2, 262157, 0, 2, 262158, 0, 3, 262159, 0, 2, 262160, 0, 1, 262161, 0, 0, 262162, 0, 3, 262163, 0, 3, 262164, 0, 2, 262165, 0, 2, 262166, 0, 2, 262167, 0, 0, 262168, 0, 0, 262169, 0, 2, 262170, 0, 0, 262171, 0, 3, 262172, 0, 3, 262173, 0, 0, 262174, 0, 0, 262175, 0, 2, 262176, 0, 1, 262177, 0, 2, 262178, 0, 3, 262179, 0, 2, 262180, 0, 2, 262181, 0, 3, 262182, 0, 0, 327682, 0, 0, 327683, 0, 2, 327684, 0, 3, 327685, 0, 1, 327686, 0, 0, 327687, 0, 0, 327688, 0, 3, 327689, 0, 2, 327690, 0, 0, 327691, 0, 2, 327692, 0, 1, 327693, 0, 1, 327694, 0, 0, 327695, 0, 3, 327696, 0, 2, 327697, 0, 2, 327698, 0, 3, 327699, 0, 1, 327700, 0, 0, 327701, 0, 0, 327702, 0, 3, 327703, 0, 1, 327704, 0, 1, 327705, 0, 1, 327706, 0, 2, 327707, 0, 1, 327708, 0, 3, 327709, 0, 2, 327710, 0, 0, 327711, 0, 3, 327712, 0, 1, 327713, 0, 2, 327714, 0, 1, 327715, 0, 1, 327716, 0, 1, 327717, 0, 3, 327718, 0, 0, 393218, 0, 0, 393219, 0, 2, 393220, 0, 1, 393221, 0, 0, 393222, 0, 2, 393223, 0, 3, 393224, 0, 1, 393225, 0, 3, 393226, 0, 1, 393227, 0, 1, 393228, 0, 2, 393229, 0, 0, 393230, 0, 1, 393231, 0, 1, 393232, 0, 2, 393233, 0, 2, 393234, 0, 1, 393235, 0, 1, 393236, 0, 1, 393237, 0, 2, 393238, 0, 3, 393239, 0, 1, 393240, 0, 0, 393241, 0, 1, 393242, 0, 1, 393243, 0, 2, 393244, 0, 1, 393245, 0, 1, 393246, 0, 2, 393247, 0, 0, 393248, 0, 2, 393249, 0, 1, 393250, 0, 0, 393251, 0, 2, 393252, 0, 2, 393253, 0, 2, 393254, 0, 0, 458754, 0, 0, 458755, 0, 2, 458756, 0, 0, 458757, 0, 0, 458758, 0, 0, 458759, 0, 3, 458760, 0, 1, 458761, 0, 2, 458762, 0, 2, 458763, 0, 3, 458764, 0, 2, 458765, 0, 3, 458766, 0, 1, 458767, 0, 1, 458768, 0, 1, 458769, 0, 0, 458770, 0, 2, 458771, 0, 3, 458772, 0, 3, 458773, 0, 1, 458774, 0, 3, 458775, 0, 2, 458776, 0, 1, 458777, 0, 1, 458778, 0, 2, 458779, 0, 1, 458780, 0, 2, 458781, 0, 1, 458782, 0, 3, 458783, 0, 2, 458784, 0, 3, 458785, 0, 0, 458786, 0, 1, 458787, 0, 1, 458788, 0, 1, 458789, 0, 2, 458790, 0, 0, 524290, 0, 0, 524291, 0, 0, 524292, 0, 3, 524293, 0, 0, 524294, 0, 1, 524295, 0, 2, 524296, 0, 3, 524297, 0, 3, 524298, 0, 3, 524299, 0, 3, 524300, 0, 0, 524301, 0, 0, 524302, 0, 2, 524303, 0, 0, 524304, 0, 0, 524305, 0, 1, 524306, 0, 1, 524307, 0, 3, 524308, 0, 3, 524309, 0, 2, 524310, 0, 2, 524311, 0, 0, 524312, 0, 0, 524313, 0, 1, 524314, 0, 3, 524315, 0, 2, 524316, 0, 1, 524317, 0, 0, 524318, 0, 3, 524319, 0, 1, 524320, 0, 1, 524321, 0, 3, 524322, 0, 1, 524323, 0, 0, 524324, 0, 1, 524325, 0, 3, 524326, 0, 0, 589826, 0, 0, 589827, 0, 2, 589828, 0, 3, 589829, 0, 2, 589830, 0, 0, 589831, 0, 2, 589832, 0, 1, 589833, 0, 0, 589834, 0, 3, 589835, 0, 3, 589836, 0, 2, 589837, 0, 1, 589838, 0, 1, 589839, 0, 2, 589840, 0, 1, 589841, 0, 3, 589842, 0, 2, 589843, 0, 0, 589844, 0, 0, 589845, 0, 1, 589846, 0, 2, 589847, 0, 3, 589848, 0, 1, 589849, 0, 2, 589850, 0, 3, 589851, 0, 2, 589852, 0, 1, 589853, 0, 2, 589854, 0, 1, 589855, 0, 3, 589856, 0, 3, 589857, 0, 0, 589858, 0, 3, 589859, 0, 3, 589860, 0, 2, 589861, 0, 0, 589862, 0, 0, 655362, 0, 0, 655363, 0, 3, 655364, 0, 2, 655365, 0, 0, 655366, 0, 2, 655367, 0, 3, 655368, 0, 2, 655369, 0, 2, 655370, 0, 1, 655371, 0, 2, 655372, 0, 0, 655373, 0, 1, 655374, 0, 0, 655375, 0, 0, 655376, 0, 3, 655377, 0, 0, 655378, 0, 2, 655379, 0, 3, 655380, 0, 2, 655381, 0, 0, 655382, 0, 3, 655383, 0, 1, 655384, 0, 1, 655385, 0, 1, 655386, 0, 2, 655387, 0, 1, 655388, 0, 3, 655389, 0, 3, 655390, 0, 0, 655391, 0, 3, 655392, 0, 1, 655393, 0, 3, 655394, 0, 2, 655395, 0, 1, 655396, 0, 1, 655397, 0, 3, 655398, 0, 0, 720898, 0, 0, 720899, 0, 0, 720900, 0, 1, 720901, 0, 3, 720902, 0, 1, 720903, 0, 1, 720904, 0, 3, 720905, 0, 1, 720906, 0, 2, 720907, 0, 2, 720908, 0, 0, 720909, 0, 3, 720910, 0, 3, 720911, 0, 1, 720912, 0, 3, 720913, 0, 2, 720914, 0, 2, 720915, 0, 0, 720916, 0, 1, 720917, 0, 1, 720918, 0, 2, 720919, 0, 3, 720920, 0, 3, 720921, 0, 3, 720922, 0, 1, 720923, 0, 1, 720924, 0, 0, 720925, 0, 2, 720926, 0, 0, 720927, 0, 1, 720928, 0, 3, 720929, 0, 1, 720930, 0, 2, 720931, 0, 1, 720932, 0, 1, 720933, 0, 3, 720934, 0, 0, 786434, 0, 0, 786435, 0, 0, 786436, 0, 0, 786437, 0, 3, 786438, 0, 2, 786439, 0, 1, 786440, 0, 1, 786441, 0, 0, 786442, 0, 1, 786443, 0, 3, 786444, 0, 1, 786445, 0, 0, 786446, 0, 2, 786447, 0, 3, 786448, 0, 2, 786449, 0, 0, 786450, 0, 3, 786451, 0, 0, 786452, 0, 2, 786453, 0, 0, 786454, 0, 0, 786455, 0, 2, 786456, 0, 1, 786457, 0, 0, 786458, 0, 2, 786459, 0, 1, 786460, 0, 0, 786461, 0, 1, 786462, 0, 1, 786463, 0, 1, 786464, 0, 1, 786465, 0, 0, 786466, 0, 2, 786467, 0, 1, 786468, 0, 0, 786469, 0, 3, 786470, 0, 0, 851970, 0, 0, 851971, 0, 0, 851972, 0, 1, 851973, 0, 0, 851974, 0, 0, 851975, 0, 1, 851976, 0, 1, 851977, 0, 1, 851978, 0, 2, 851979, 0, 1, 851980, 0, 2, 851981, 0, 0, 851982, 0, 2, 851983, 0, 0, 851984, 0, 2, 851985, 0, 2, 851986, 0, 3, 851987, 0, 2, 851988, 0, 1, 851989, 0, 2, 851990, 0, 2, 851991, 0, 3, 851992, 0, 1, 851993, 0, 1, 851994, 0, 0, 851995, 0, 2, 851996, 0, 1, 851997, 0, 1, 851998, 0, 2, 851999, 0, 1, 852000, 0, 3, 852001, 0, 1, 852002, 0, 2, 852003, 0, 2, 852004, 0, 0, 852005, 0, 1, 852006, 0, 0, 917506, 0, 0, 917507, 0, 0, 917508, 0, 0, 917509, 0, 2, 917510, 0, 2, 917511, 0, 2, 917512, 0, 3, 917513, 0, 3, 917514, 0, 1, 917515, 0, 0, 917516, 0, 1, 917517, 0, 1, 917518, 0, 3, 917519, 0, 3, 917520, 0, 2, 917521, 0, 1, 917522, 0, 3, 917523, 0, 3, 917524, 0, 3, 917525, 0, 3, 917526, 0, 1, 917527, 0, 1, 917528, 0, 2, 917529, 0, 0, 917530, 0, 0, 917531, 0, 1, 917532, 0, 2, 917533, 0, 1, 917534, 0, 2, 917535, 0, 0, 917536, 0, 3, 917537, 0, 0, 917538, 0, 3, 917539, 0, 0, 917540, 0, 3, 917541, 0, 0, 917542, 0, 0, 983042, 0, 0, 983043, 0, 1, 983044, 0, 2, 983045, 0, 0, 983046, 0, 2, 983047, 0, 2, 983048, 0, 0, 983049, 0, 3, 983050, 0, 0, 983051, 0, 3, 983052, 0, 0, 983053, 0, 1, 983054, 0, 3, 983055, 0, 1, 983056, 0, 0, 983057, 0, 1, 983058, 0, 1, 983059, 0, 1, 983060, 0, 1, 983061, 0, 2, 983062, 0, 3, 983063, 0, 2, 983064, 0, 0, 983065, 0, 1, 983066, 0, 2, 983067, 0, 2, 983068, 0, 1, 983069, 0, 1, 983070, 0, 1, 983071, 0, 3, 983072, 0, 0, 983073, 0, 0, 983074, 0, 3, 983075, 0, 0, 983076, 0, 0, 983077, 0, 2, 983078, 0, 0, 1048578, 0, 0, 1048579, 0, 2, 1048580, 0, 3, 1048581, 0, 1, 1048582, 0, 3, 1048583, 0, 3, 1048584, 0, 2, 1048585, 0, 3, 1048586, 0, 0, 1048587, 0, 0, 1048588, 0, 2, 1048589, 0, 2, 1048590, 0, 2, 1048591, 0, 2, 1048592, 0, 2, 1048593, 0, 2, 1048594, 0, 0, 1048595, 0, 2, 1048596, 0, 2, 1048597, 0, 1, 1048598, 0, 3, 1048599, 0, 3, 1048600, 0, 1, 1048601, 0, 0, 1048602, 0, 0, 1048603, 0, 2, 1048604, 0, 2, 1048605, 0, 0, 1048606, 0, 3, 1048607, 0, 1, 1048608, 0, 3, 1048609, 0, 2, 1048610, 0, 3, 1048611, 0, 0, 1048612, 0, 3, 1048613, 0, 1, 1048614, 0, 0, 1114114, 0, 0, 1114115, 0, 1, 1114116, 0, 3, 1114117, 0, 0, 1114118, 0, 0, 1114119, 0, 0, 1114120, 0, 1, 1114121, 0, 3, 1114122, 0, 3, 1114123, 0, 1, 1114124, 0, 0, 1114125, 0, 2, 1114126, 0, 0, 1114127, 0, 1, 1114128, 0, 0, 1114129, 0, 1, 1114130, 0, 2, 1114131, 0, 3, 1114132, 0, 3, 1114133, 0, 2, 1114134, 0, 2, 1114135, 0, 3, 1114136, 0, 2, 1114137, 0, 1, 1114138, 0, 2, 1114139, 0, 3, 1114140, 0, 1, 1114141, 0, 3, 1114142, 0, 1, 1114143, 0, 1, 1114144, 0, 1, 1114145, 0, 0, 1114146, 0, 1, 1114147, 0, 2, 1114148, 0, 1, 1114149, 0, 1, 1114150, 0, 0, 1179650, 0, 0, 1179651, 0, 3, 1179652, 0, 2, 1179653, 0, 0, 1179654, 0, 2, 1179655, 0, 2, 1179656, 0, 2, 1179657, 0, 2, 1179658, 0, 2, 1179659, 0, 2, 1179660, 0, 0, 1179661, 0, 1, 1179662, 0, 1, 1179663, 0, 3, 1179664, 0, 0, 1179665, 0, 0, 1179666, 0, 3, 1179667, 0, 3, 1179668, 0, 0, 1179669, 0, 0, 1179670, 0, 0, 1179671, 0, 3, 1179672, 0, 2, 1179673, 0, 0, 1179674, 0, 3, 1179675, 0, 1, 1179676, 0, 1, 1179677, 0, 1, 1179678, 0, 0, 1179679, 0, 1, 1179680, 0, 0, 1179681, 0, 0, 1179682, 0, 0, 1179683, 0, 0, 1179684, 0, 1, 1179685, 0, 0, 1179686, 0, 0, 1245186, 0, 0, 1245187, 0, 0, 1245188, 0, 1, 1245189, 0, 0, 1245190, 0, 0, 1245191, 0, 1, 1245192, 0, 0, 1245193, 0, 3, 1245194, 0, 0, 1245195, 0, 2, 1245196, 0, 0, 1245197, 0, 0, 1245198, 0, 1, 1245199, 0, 3, 1245200, 0, 3, 1245201, 0, 3, 1245202, 0, 1, 1245203, 0, 3, 1245204, 0, 3, 1245205, 0, 3, 1245206, 0, 2, 1245207, 0, 3, 1245208, 0, 3, 1245209, 0, 2, 1245210, 0, 0, 1245211, 0, 2, 1245212, 0, 0, 1245213, 0, 3, 1245214, 0, 0, 1245215, 0, 0, 1245216, 0, 0, 1245217, 0, 0, 1245218, 0, 0, 1245219, 0, 0, 1245220, 0, 0, 1245221, 0, 0, 1245222, 0, 0, 1310722, 0, 0, 1310723, 0, 3, 1310724, 0, 0, 1310725, 0, 2, 1310726, 0, 0, 1310727, 0, 2, 1310728, 0, 0, 1310729, 0, 0, 1310730, 0, 2, 1310731, 0, 2, 1310732, 0, 2, 1310733, 0, 2, 1310734, 0, 0, 1310735, 0, 2, 1310736, 0, 1, 1310737, 0, 3, 1310738, 0, 0, 1310739, 0, 1, 1310740, 0, 1, 1310741, 0, 2, 1310742, 0, 3, 1310743, 0, 0, 1310744, 0, 2, 1310745, 0, 2, 1310746, 0, 0, 1310747, 0, 1, 1310748, 0, 1, 1310749, 0, 0, 1310750, 0, 0, 1310751, 1, 0, 1310752, 1, 12, 1310753, 1, 12, 1310754, 1, 12, 1310755, 1, 12, 1310756, 1, 2, 1310757, 0, 0, 1310758, 0, 0, 1376258, 0, 0, 1376259, 0, 2, 1376260, 0, 3, 1376261, 0, 0, 1376262, 0, 3, 1376263, 0, 1, 1376264, 0, 3, 1376265, 0, 0, 1376266, 0, 1, 1376267, 0, 0, 1376268, 0, 2, 1376269, 0, 3, 1376270, 0, 0, 1376271, 0, 1, 1376272, 0, 3, 1376273, 0, 2, 1376274, 0, 0, 1376275, 0, 0, 1376276, 0, 2, 1376277, 0, 2, 1376278, 0, 3, 1376279, 0, 0, 1376280, 0, 1, 1376281, 0, 2, 1376282, 0, 2, 1376283, 0, 0, 1376284, 0, 2, 1376285, 0, 2, 1376286, 0, 0, 1376287, 1, 65547, 1376288, 1, 262146, 1376289, 1, 262146, 1376290, 1, 65548, 1376291, 1, 65537, 1376292, 1, 65538, 1376293, 0, 0, 1376294, 0, 0, 1441794, 0, 0, 1441795, 0, 0, 1441796, 0, 3, 1441797, 0, 1, 1441798, 0, 1, 1441799, 0, 3, 1441800, 0, 3, 1441801, 0, 1, 1441802, 0, 2, 1441803, 0, 2, 1441804, 0, 0, 1441805, 0, 0, 1441806, 0, 2, 1441807, 0, 3, 1441808, 0, 1, 1441809, 0, 3, 1441810, 0, 2, 1441811, 0, 0, 1441812, 0, 3, 1441813, 0, 1, 1441814, 0, 1, 1441815, 0, 3, 1441816, 0, 1, 1441817, 0, 3, 1441818, 0, 2, 1441819, 0, 1, 1441820, 0, 2, 1441821, 0, 1, 1441822, 0, 0, 1441823, 1, 65547, 1441824, 1, 65548, 1441825, 1, 65548, 1441826, 1, 262146, 1441827, 1, 262145, 1441828, 1, 65538, 1441829, 0, 0, 1441830, 0, 0, 1507330, 0, 0, 1507331, 0, 3, 1507332, 0, 3, 1507333, 0, 0, 1507334, 0, 1, 1507335, 0, 2, 1507336, 0, 2, 1507337, 0, 0, 1507338, 0, 3, 1507339, 0, 3, 1507340, 0, 1, 1507341, 0, 0, 1507342, 0, 2, 1507343, 0, 2, 1507344, 0, 1, 1507345, 0, 0, 1507346, 0, 2, 1507347, 0, 3, 1507348, 0, 2, 1507349, 0, 0, 1507350, 0, 0, 1507351, 0, 1, 1507352, 0, 0, 1507353, 0, 0, 1507354, 0, 0, 1507355, 0, 3, 1507356, 0, 0, 1507357, 0, 2, 1507358, 0, 0, 1507359, 1, 65536, 1507360, 1, 262146, 1507361, 1, 262146, 1507362, 1, 65548, 1507363, 1, 262146, 1507364, 1, 65549, 1507365, 0, 0, 1507366, 0, 0, 1572866, 0, 0, 1572867, 0, 2, 1572868, 0, 0, 1572869, 0, 1, 1572870, 0, 1, 1572871, 0, 3, 1572872, 0, 1, 1572873, 0, 2, 1572874, 0, 0, 1572875, 0, 2, 1572876, 0, 0, 1572877, 0, 1, 1572878, 0, 0, 1572879, 0, 0, 1572880, 0, 1, 1572881, 0, 1, 1572882, 0, 0, 1572883, 0, 1, 1572884, 0, 3, 1572885, 0, 1, 1572886, 0, 1, 1572887, 0, 1, 1572888, 0, 1, 1572889, 0, 0, 1572890, 0, 3, 1572891, 0, 3, 1572892, 0, 0, 1572893, 0, 3, 1572894, 0, 0, 1572895, 1, 65547, 1572896, 1, 262145, 1572897, 1, 262144, 1572898, 1, 65548, 1572899, 1, 65548, 1572900, 1, 65549, 1572901, 0, 0, 1572902, 0, 0, 1638402, 0, 0, 1638403, 0, 3, 1638404, 0, 2, 1638405, 0, 2, 1638406, 0, 1, 1638407, 0, 3, 1638408, 0, 3, 1638409, 0, 0, 1638410, 0, 3, 1638411, 0, 3, 1638412, 0, 0, 1638413, 0, 2, 1638414, 0, 3, 1638415, 0, 1, 1638416, 0, 0, 1638417, 0, 0, 1638418, 0, 1, 1638419, 0, 2, 1638420, 0, 0, 1638421, 0, 2, 1638422, 0, 0, 1638423, 0, 2, 1638424, 0, 3, 1638425, 0, 2, 1638426, 0, 1, 1638427, 0, 2, 1638428, 0, 3, 1638429, 0, 2, 1638430, 0, 0, 1638431, 1, 65547, 1638432, 1, 262146, 1638433, 1, 65548, 1638434, 1, 65537, 1638435, 1, 65537, 1638436, 1, 65549, 1638437, 0, 0, 1638438, 0, 0, 1703938, 0, 0, 1703939, 0, 0, 1703940, 0, 1, 1703941, 0, 3, 1703942, 0, 3, 1703943, 0, 0, 1703944, 0, 1, 1703945, 0, 3, 1703946, 0, 0, 1703947, 0, 2, 1703948, 0, 3, 1703949, 0, 0, 1703950, 0, 0, 1703951, 0, 1, 1703952, 0, 3, 1703953, 0, 0, 1703954, 0, 1, 1703955, 0, 0, 1703956, 0, 3, 1703957, 0, 3, 1703958, 0, 3, 1703959, 0, 2, 1703960, 0, 3, 1703961, 0, 3, 1703962, 0, 0, 1703963, 0, 3, 1703964, 0, 0, 1703965, 0, 2, 1703966, 0, 0, 1703967, 1, 65536, 1703968, 1, 262145, 1703969, 1, 262144, 1703970, 1, 262146, 1703971, 1, 262145, 1703972, 1, 65549, 1703973, 0, 0, 1703974, 0, 0, 1769474, 0, 0, 1769475, 0, 0, 1769476, 0, 2, 1769477, 0, 0, 1769478, 0, 2, 1769479, 0, 3, 1769480, 0, 1, 1769481, 0, 0, 1769482, 0, 3, 1769483, 0, 3, 1769484, 0, 0, 1769485, 0, 2, 1769486, 0, 3, 1769487, 0, 3, 1769488, 0, 1, 1769489, 0, 2, 1769490, 0, 3, 1769491, 0, 0, 1769492, 0, 0, 1769493, 0, 2, 1769494, 0, 0, 1769495, 0, 0, 1769496, 0, 2, 1769497, 0, 1, 1769498, 0, 1, 1769499, 0, 2, 1769500, 0, 0, 1769501, 0, 2, 1769502, 0, 0, 1769503, 1, 65536, 1769504, 1, 65537, 1769505, 1, 65548, 1769506, 1, 262144, 1769507, 1, 65537, 1769508, 1, 65549, 1769509, 0, 0, 1769510, 0, 0, 1835010, 0, 0, 1835011, 0, 1, 1835012, 0, 0, 1835013, 0, 2, 1835014, 0, 1, 1835015, 0, 1, 1835016, 0, 3, 1835017, 0, 0, 1835018, 0, 2, 1835019, 0, 3, 1835020, 0, 0, 1835021, 0, 0, 1835022, 0, 0, 1835023, 0, 2, 1835024, 0, 2, 1835025, 0, 2, 1835026, 0, 0, 1835027, 0, 3, 1835028, 0, 1, 1835029, 0, 3, 1835030, 0, 1, 1835031, 0, 0, 1835032, 0, 1, 1835033, 0, 3, 1835034, 0, 2, 1835035, 0, 0, 1835036, 0, 0, 1835037, 0, 3, 1835038, 0, 0, 1835039, 1, 65536, 1835040, 1, 262146, 1835041, 1, 262144, 1835042, 1, 262146, 1835043, 1, 262145, 1835044, 1, 65549, 1835045, 0, 0, 1835046, 0, 0, 1900546, 0, 0, 1900547, 0, 3, 1900548, 0, 1, 1900549, 0, 3, 1900550, 0, 2, 1900551, 0, 2, 1900552, 0, 1, 1900553, 0, 2, 1900554, 0, 2, 1900555, 0, 0, 1900556, 0, 3, 1900557, 0, 2, 1900558, 0, 2, 1900559, 0, 2, 1900560, 0, 1, 1900561, 0, 3, 1900562, 0, 2, 1900563, 0, 0, 1900564, 0, 3, 1900565, 0, 3, 1900566, 0, 0, 1900567, 0, 3, 1900568, 0, 2, 1900569, 0, 2, 1900570, 0, 2, 1900571, 0, 3, 1900572, 0, 1, 1900573, 0, 1, 1900574, 0, 0, 1900575, 1, 131072, 1900576, 1, 131073, 1900577, 1, 131084, 1900578, 1, 131084, 1900579, 1, 131084, 1900580, 1, 131074, 1900581, 0, 0, 1900582, 0, 0, 1966082, 0, 0, 1966083, 0, 0, 1966084, 0, 0, 1966085, 0, 3, 1966086, 0, 0, 1966087, 0, 0, 1966088, 0, 0, 1966089, 0, 1, 1966090, 0, 0, 1966091, 0, 3, 1966092, 0, 2, 1966093, 0, 2, 1966094, 0, 1, 1966095, 0, 3, 1966096, 0, 0, 1966097, 0, 0, 1966098, 0, 1, 1966099, 0, 2, 1966100, 0, 1, 1966101, 0, 2, 1966102, 0, 2, 1966103, 0, 1, 1966104, 0, 1, 1966105, 0, 2, 1966106, 0, 3, 1966107, 0, 3, 1966108, 0, 0, 1966109, 0, 0, 1966110, 0, 0, 1966111, 0, 0, 1966112, 0, 0, 1966113, 0, 0, 1966114, 0, 0, 1966115, 0, 0, 1966116, 0, 0, 1966117, 0, 0, 1966118, 0, 0, 2031618, 0, 0, 2031619, 0, 2, 2031620, 0, 2, 2031621, 0, 3, 2031622, 0, 3, 2031623, 0, 0, 2031624, 0, 3, 2031625, 0, 0, 2031626, 0, 0, 2031627, 0, 3, 2031628, 0, 3, 2031629, 0, 2, 2031630, 0, 1, 2031631, 0, 1, 2031632, 0, 3, 2031633, 0, 2, 2031634, 0, 2, 2031635, 0, 1, 2031636, 0, 2, 2031637, 0, 1, 2031638, 0, 3, 2031639, 0, 2, 2031640, 0, 0, 2031641, 0, 3, 2031642, 0, 1, 2031643, 0, 3, 2031644, 0, 0, 2031645, 0, 0, 2031646, 0, 1, 2031647, 0, 2, 2031648, 0, 2, 2031649, 0, 3, 2031650, 0, 3, 2031651, 0, 3, 2031652, 0, 1, 2031653, 0, 3, 2031654, 0, 0, 2097154, 0, 0, 2097155, 0, 2, 2097156, 0, 1, 2097157, 0, 3, 2097158, 0, 2, 2097159, 0, 3, 2097160, 0, 1, 2097161, 0, 0, 2097162, 0, 2, 2097163, 0, 3, 2097164, 0, 2, 2097165, 0, 1, 2097166, 0, 2, 2097167, 0, 0, 2097168, 0, 0, 2097169, 0, 3, 2097170, 0, 2, 2097171, 0, 3, 2097172, 0, 2, 2097173, 0, 1, 2097174, 0, 3, 2097175, 0, 2, 2097176, 0, 1, 2097177, 0, 1, 2097178, 0, 1, 2097179, 0, 3, 2097180, 0, 3, 2097181, 0, 0, 2097182, 0, 0, 2097183, 0, 1, 2097184, 0, 0, 2097185, 0, 1, 2097186, 0, 3, 2097187, 0, 2, 2097188, 0, 0, 2097189, 0, 0, 2097190, 0, 0, 2162690, 0, 0, 2162691, 0, 0, 2162692, 0, 2, 2162693, 0, 3, 2162694, 0, 1, 2162695, 0, 1, 2162696, 0, 2, 2162697, 0, 2, 2162698, 0, 1, 2162699, 0, 2, 2162700, 0, 1, 2162701, 0, 1, 2162702, 0, 0, 2162703, 0, 1, 2162704, 0, 2, 2162705, 0, 0, 2162706, 0, 0, 2162707, 0, 1, 2162708, 0, 3, 2162709, 0, 2, 2162710, 0, 1, 2162711, 0, 2, 2162712, 0, 3, 2162713, 0, 0, 2162714, 0, 3, 2162715, 0, 1, 2162716, 0, 3, 2162717, 0, 2, 2162718, 0, 2, 2162719, 0, 0, 2162720, 0, 0, 2162721, 0, 3, 2162722, 0, 1, 2162723, 0, 3, 2162724, 0, 2, 2162725, 0, 1, 2162726, 0, 0, 2228226, 0, 0, 2228227, 0, 3, 2228228, 0, 0, 2228229, 0, 1, 2228230, 0, 1, 2228231, 0, 0, 2228232, 0, 3, 2228233, 0, 1, 2228234, 0, 3, 2228235, 0, 1, 2228236, 0, 2, 2228237, 0, 3, 2228238, 0, 3, 2228239, 0, 1, 2228240, 0, 0, 2228241, 0, 1, 2228242, 0, 0, 2228243, 0, 2, 2228244, 0, 3, 2228245, 0, 3, 2228246, 0, 3, 2228247, 0, 2, 2228248, 0, 1, 2228249, 0, 3, 2228250, 0, 2, 2228251, 0, 1, 2228252, 0, 3, 2228253, 0, 1, 2228254, 0, 0, 2228255, 0, 1, 2228256, 0, 2, 2228257, 0, 0, 2228258, 0, 2, 2228259, 0, 0, 2228260, 0, 3, 2228261, 0, 3, 2228262, 0, 0, 2293762, 0, 0, 2293763, 0, 0, 2293764, 0, 3, 2293765, 0, 2, 2293766, 0, 1, 2293767, 0, 3, 2293768, 0, 0, 2293769, 0, 0, 2293770, 0, 3, 2293771, 0, 3, 2293772, 0, 0, 2293773, 0, 1, 2293774, 0, 3, 2293775, 0, 2, 2293776, 0, 1, 2293777, 0, 0, 2293778, 0, 2, 2293779, 0, 3, 2293780, 0, 1, 2293781, 0, 2, 2293782, 0, 0, 2293783, 0, 2, 2293784, 0, 3, 2293785, 0, 2, 2293786, 0, 1, 2293787, 0, 2, 2293788, 0, 1, 2293789, 0, 1, 2293790, 0, 1, 2293791, 0, 0, 2293792, 0, 0, 2293793, 0, 1, 2293794, 0, 2, 2293795, 0, 3, 2293796, 0, 0, 2293797, 0, 1, 2293798, 0, 0, 2359298, 0, 0, 2359299, 0, 3, 2359300, 0, 0, 2359301, 0, 2, 2359302, 0, 2, 2359303, 0, 2, 2359304, 0, 0, 2359305, 0, 0, 2359306, 0, 3, 2359307, 0, 1, 2359308, 0, 0, 2359309, 0, 1, 2359310, 0, 0, 2359311, 0, 2, 2359312, 0, 3, 2359313, 0, 1, 2359314, 0, 1, 2359315, 0, 0, 2359316, 0, 0, 2359317, 0, 3, 2359318, 0, 3, 2359319, 0, 3, 2359320, 0, 3, 2359321, 0, 0, 2359322, 0, 0, 2359323, 0, 1, 2359324, 0, 2, 2359325, 0, 0, 2359326, 0, 1, 2359327, 0, 2, 2359328, 0, 0, 2359329, 0, 2, 2359330, 0, 3, 2359331, 0, 1, 2359332, 0, 2, 2359333, 0, 2, 2359334, 0, 0, 2424834, 0, 0, 2424835, 0, 2, 2424836, 0, 2, 2424837, 0, 1, 2424838, 0, 3, 2424839, 0, 1, 2424840, 0, 2, 2424841, 0, 3, 2424842, 0, 3, 2424843, 0, 1, 2424844, 0, 1, 2424845, 0, 3, 2424846, 0, 3, 2424847, 0, 3, 2424848, 0, 0, 2424849, 0, 2, 2424850, 0, 3, 2424851, 0, 0, 2424852, 0, 1, 2424853, 0, 2, 2424854, 0, 3, 2424855, 0, 2, 2424856, 0, 2, 2424857, 0, 3, 2424858, 0, 2, 2424859, 0, 2, 2424860, 0, 0, 2424861, 0, 2, 2424862, 0, 1, 2424863, 0, 3, 2424864, 0, 0, 2424865, 0, 1, 2424866, 0, 3, 2424867, 0, 2, 2424868, 0, 0, 2424869, 0, 0, 2424870, 0, 0, 2490370, 0, 0, 2490371, 0, 0, 2490372, 0, 3, 2490373, 0, 0, 2490374, 0, 3, 2490375, 0, 3, 2490376, 0, 0, 2490377, 0, 3, 2490378, 0, 0, 2490379, 0, 3, 2490380, 0, 3, 2490381, 0, 3, 2490382, 0, 2, 2490383, 0, 1, 2490384, 0, 2, 2490385, 0, 1, 2490386, 0, 2, 2490387, 0, 2, 2490388, 0, 0, 2490389, 0, 3, 2490390, 0, 0, 2490391, 0, 2, 2490392, 0, 1, 2490393, 0, 3, 2490394, 0, 2, 2490395, 0, 3, 2490396, 0, 3, 2490397, 0, 1, 2490398, 0, 1, 2490399, 0, 2, 2490400, 0, 1, 2490401, 0, 1, 2490402, 0, 0, 2490403, 0, 0, 2490404, 0, 0, 2490405, 2, 0, 2490406, 2, 1, 2490407, 2, 12, 2490408, 2, 1, 2490409, 2, 13, 2555906, 0, 0, 2555907, 0, 0, 2555908, 0, 3, 2555909, 0, 1, 2555910, 0, 0, 2555911, 0, 3, 2555912, 0, 0, 2555913, 0, 0, 2555914, 0, 2, 2555915, 0, 3, 2555916, 0, 0, 2555917, 0, 1, 2555918, 0, 0, 2555919, 0, 0, 2555920, 0, 0, 2555921, 0, 0, 2555922, 0, 0, 2555923, 0, 0, 2555924, 0, 0, 2555925, 0, 0, 2555926, 0, 0, 2555927, 0, 2, 2555928, 0, 0, 2555929, 0, 2, 2555930, 0, 2, 2555931, 0, 2, 2555932, 0, 1, 2555933, 0, 2, 2555934, 0, 3, 2555935, 0, 0, 2555936, 0, 0, 2555937, 0, 0, 2555938, 0, 0, 2555939, 2, 0, 2555940, 2, 12, 2555941, 2, 131078, 2555942, 2, 262144, 2555943, 2, 262145, 2555944, 2, 65548, 2555945, 2, 65549, 2621442, 0, 0, 2621443, 0, 2, 2621444, 0, 3, 2621445, 0, 0, 2621446, 0, 3, 2621447, 0, 0, 2621448, 0, 2, 2621449, 0, 1, 2621450, 0, 1, 2621451, 0, 1, 2621452, 0, 3, 2621453, 0, 0, 2621454, 0, 2, 2621455, 0, 0, 2621456, 1, 11, 2621457, 1, 1, 2621458, 1, 12, 2621459, 1, 12, 2621460, 1, 12, 2621461, 1, 13, 2621462, 0, 0, 2621463, 0, 1, 2621464, 0, 1, 2621465, 0, 3, 2621466, 0, 0, 2621467, 0, 1, 2621468, 0, 3, 2621469, 0, 1, 2621470, 0, 1, 2621471, 0, 0, 2621472, 0, 0, 2621473, 0, 0, 2621474, 2, 11, 2621475, 2, 131089, 2621476, 2, 262145, 2621477, 2, 65537, 2621478, 2, 262144, 2621479, 2, 65548, 2621480, 2, 262146, 2621481, 2, 65538, 2686978, 0, 0, 2686979, 0, 1, 2686980, 0, 3, 2686981, 0, 1, 2686982, 0, 3, 2686983, 0, 2, 2686984, 0, 2, 2686985, 0, 1, 2686986, 0, 3, 2686987, 0, 2, 2686988, 0, 1, 2686989, 0, 0, 2686990, 0, 1, 2686991, 0, 0, 2686992, 1, 65547, 2686993, 1, 65548, 2686994, 1, 262144, 2686995, 1, 65548, 2686996, 1, 262146, 2686997, 1, 65549, 2686998, 0, 0, 2686999, 0, 1, 2687000, 0, 1, 2687001, 0, 2, 2687002, 0, 1, 2687003, 0, 1, 2687004, 0, 1, 2687005, 0, 3, 2687006, 0, 0, 2687007, 0, 0, 2687008, 2, 0, 2687009, 2, 1, 2687010, 2, 131078, 2687011, 2, 65548, 2687012, 2, 262144, 2687013, 2, 262146, 2687014, 2, 262145, 2687015, 2, 262145, 2687016, 2, 262145, 2687017, 2, 65538, 2752514, 0, 0, 2752515, 0, 2, 2752516, 0, 3, 2752517, 0, 0, 2752518, 0, 3, 2752519, 0, 3, 2752520, 0, 2, 2752521, 0, 3, 2752522, 0, 1, 2752523, 0, 0, 2752524, 0, 2, 2752525, 0, 2, 2752526, 0, 2, 2752527, 0, 0, 2752528, 1, 65547, 2752529, 1, 65548, 2752530, 1, 262145, 2752531, 1, 262144, 2752532, 1, 262145, 2752533, 1, 65538, 2752534, 0, 0, 2752535, 0, 0, 2752536, 0, 2, 2752537, 0, 3, 2752538, 0, 0, 2752539, 0, 2, 2752540, 0, 1, 2752541, 0, 0, 2752542, 0, 0, 2752543, 2, 0, 2752544, 2, 131078, 2752545, 2, 65537, 2752546, 2, 262145, 2752547, 2, 262146, 2752548, 2, 262145, 2752549, 2, 262145, 2752550, 2, 262144, 2752551, 2, 262146, 2752552, 2, 65548, 2752553, 2, 65549, 2818050, 0, 0, 2818051, 0, 1, 2818052, 0, 3, 2818053, 0, 3, 2818054, 0, 3, 2818055, 0, 0, 2818056, 0, 0, 2818057, 0, 2, 2818058, 0, 2, 2818059, 0, 0, 2818060, 0, 1, 2818061, 0, 2, 2818062, 0, 2, 2818063, 0, 0, 2818064, 1, 65536, 2818065, 1, 65537, 2818066, 1, 262146, 2818067, 1, 262146, 2818068, 1, 262144, 2818069, 1, 65538, 2818070, 0, 0, 2818071, 0, 3, 2818072, 0, 2, 2818073, 0, 0, 2818074, 0, 1, 2818075, 0, 2, 2818076, 0, 0, 2818077, 0, 0, 2818078, 2, 11, 2818079, 2, 131078, 2818080, 2, 65548, 2818081, 2, 262145, 2818082, 2, 262146, 2818083, 2, 65548, 2818084, 2, 65537, 2818085, 2, 65537, 2818086, 2, 262144, 2818087, 2, 262146, 2818088, 2, 65548, 2818089, 2, 65549, 2883586, 0, 0, 2883587, 0, 0, 2883588, 0, 2, 2883589, 0, 3, 2883590, 0, 2, 2883591, 0, 2, 2883592, 0, 0, 2883593, 0, 1, 2883594, 0, 3, 2883595, 0, 2, 2883596, 0, 1, 2883597, 0, 3, 2883598, 0, 2, 2883599, 0, 0, 2883600, 1, 131072, 2883601, 1, 131084, 2883602, 1, 131084, 2883603, 1, 131073, 2883604, 1, 131073, 2883605, 1, 131074, 2883606, 0, 0, 2883607, 0, 3, 2883608, 0, 1, 2883609, 0, 3, 2883610, 0, 2, 2883611, 0, 2, 2883612, 0, 0, 2883613, 0, 0, 2883614, 2, 65536, 2883615, 2, 262146, 2883616, 2, 262146, 2883617, 2, 65537, 2883618, 2, 65537, 2883619, 2, 65548, 2883620, 2, 262144, 2883621, 2, 65548, 2883622, 2, 262144, 2883623, 2, 262145, 2883624, 2, 65548, 2883625, 2, 65549, 2949122, 0, 0, 2949123, 0, 2, 2949124, 0, 0, 2949125, 0, 3, 2949126, 0, 2, 2949127, 0, 2, 2949128, 0, 0, 2949129, 0, 3, 2949130, 0, 3, 2949131, 0, 3, 2949132, 0, 3, 2949133, 0, 2, 2949134, 0, 3, 2949135, 0, 0, 2949136, 0, 0, 2949137, 0, 0, 2949138, 0, 0, 2949139, 0, 0, 2949140, 0, 0, 2949141, 0, 0, 2949142, 0, 0, 2949143, 0, 0, 2949144, 0, 3, 2949145, 0, 3, 2949146, 0, 1, 2949147, 0, 0, 2949148, 0, 0, 2949149, 2, 0, 2949150, 2, 131089, 2949151, 2, 262146, 2949152, 2, 65537, 2949153, 2, 65548, 2949154, 2, 262145, 2949155, 2, 65537, 2949156, 2, 65537, 2949157, 2, 262145, 2949158, 2, 65548, 2949159, 2, 262146, 2949160, 2, 262144, 2949161, 2, 65538, 3014658, 0, 0, 3014659, 0, 0, 3014660, 0, 0, 3014661, 0, 0, 3014662, 0, 0, 3014663, 0, 0, 3014664, 0, 0, 3014665, 0, 0, 3014666, 0, 0, 3014667, 0, 0, 3014668, 0, 0, 3014669, 0, 0, 3014670, 0, 0, 3014671, 0, 0, 3014672, 0, 0, 3014673, 0, 0, 3014674, 0, 0, 3014675, 0, 0, 3014676, 0, 0, 3014677, 0, 0, 3014678, 0, 0, 3014679, 0, 0, 3014680, 0, 0, 3014681, 0, 0, 3014682, 0, 0, 3014683, 0, 0, 3014684, 2, 196619, 3014685, 2, 196625, 3014686, 2, 131073, 3014687, 2, 131084, 3014688, 2, 131084, 3014689, 2, 131073, 3014690, 2, 131084, 3014691, 2, 131073, 3014692, 2, 131084, 3014693, 2, 131084, 3014694, 2, 131084, 3014695, 2, 131084, 3014696, 2, 131073, 3014697, 2, 131074 )

[node name="Foreground" type="TileMap" parent="."]
z_index = -5
tile_set = ExtResource( 3 )
cell_size = Vector2( 16, 16 )
collision_layer = 524289
collision_mask = 524289
format = 1
tile_data = PoolIntArray( 0, 3, 65537, 1, 3, 65537, 2, 3, 65537, 3, 3, 65559, 4, 3, 65548, 5, 3, 65537, 6, 3, 65537, 7, 3, 65548, 8, 3, 65548, 9, 3, 65559, 10, 3, 65548, 11, 3, 65537, 12, 3, 65548, 13, 3, 65548, 14, 3, 65537, 15, 3, 65548, 16, 3, 65559, 17, 3, 65537, 18, 3, 65559, 19, 3, 65559, 20, 3, 65537, 21, 3, 65537, 22, 3, 65559, 23, 3, 65559, 24, 3, 65537, 25, 3, 65559, 26, 3, 65548, 27, 3, 65559, 28, 3, 65559, 29, 3, 65548, 30, 3, 65548, 31, 3, 65537, 32, 3, 65537, 33, 3, 65559, 34, 3, 65537, 35, 3, 65548, 36, 3, 65548, 37, 3, 65537, 38, 3, 65548, 39, 3, 65548, 40, 3, 65559, 41, 3, 65559, 65536, 3, 65537, 65537, 3, 65541, 65538, 3, 131084, 65539, 3, 131073, 65540, 3, 131095, 65541, 3, 131084, 65542, 3, 131073, 65543, 3, 131084, 65544, 3, 131073, 65545, 3, 131095, 65546, 3, 131084, 65547, 3, 131073, 65548, 3, 131084, 65549, 3, 131084, 65550, 3, 131073, 65551, 3, 131084, 65552, 3, 131095, 65553, 3, 131084, 65554, 3, 131073, 65555, 3, 131073, 65556, 3, 131095, 65557, 3, 131073, 65558, 3, 131095, 65559, 3, 131073, 65560, 3, 131073, 65561, 3, 131084, 65562, 3, 131095, 65563, 3, 131095, 65564, 3, 131095, 65565, 3, 131095, 65566, 3, 131073, 65567, 3, 131084, 65568, 3, 131073, 65569, 3, 131084, 65570, 3, 131084, 65571, 3, 131084, 65572, 3, 131073, 65573, 3, 131084, 65574, 3, 131073, 65575, 3, 131095, 65576, 3, 65553, 65577, 3, 65559, 131072, 3, 65559, 131073, 3, 65549, 131074, 0, 4, 131075, 0, 196609, 131076, 0, 196609, 131077, 0, 196631, 131078, 0, 196631, 131079, 0, 196620, 131080, 0, 196609, 131081, 0, 196609, 131082, 0, 196620, 131083, 0, 196620, 131084, 0, 196631, 131085, 0, 196620, 131086, 0, 196631, 131087, 0, 196609, 131088, 0, 196609, 131089, 0, 196620, 131090, 0, 196620, 131091, 0, 196620, 131092, 0, 196620, 131093, 0, 196620, 131094, 0, 196631, 131095, 0, 196609, 131096, 0, 196609, 131097, 0, 196631, 131098, 0, 196609, 131099, 0, 196620, 131100, 0, 196631, 131101, 0, 196631, 131102, 0, 196609, 131103, 0, 196631, 131104, 0, 196620, 131105, 0, 196620, 131106, 0, 196620, 131107, 0, 196609, 131108, 0, 196620, 131109, 0, 196631, 131110, 0, 196620, 131111, 0, 196632, 131112, 3, 65558, 131113, 3, 65559, 196608, 3, 65548, 196609, 3, 65549, 196610, 0, 65539, 196646, -2147483640, 0, 196647, 1, 65539, 196648, 3, 65536, 196649, 3, 65559, 262144, 3, 65537, 262145, 3, 65560, 262146, 0, 65561, 262148, 4, 0, 262149, 4, 0, 262172, 4, 0, 262173, 4, 0, 262182, -2147483640, 0, 262183, 1, 65539, 262184, 3, 65558, 262185, 3, 65559, 327680, 3, 65537, 327681, 3, 65560, 327682, 0, 65561, 327684, 4, 0, 327685, 4, 0, 327708, 4, 0, 327709, 4, 0, 327718, -2147483640, 0, 327719, 1, 65550, 327720, 3, 65536, 327721, 3, 65537, 393216, 3, 65548, 393217, 3, 65560, 393218, 0, 65550, 393254, -2147483640, 0, 393255, 1, 65550, 393256, 3, 65558, 393257, 3, 65537, 458752, 3, 65559, 458753, 3, 65549, 458754, 0, 65561, 458762, 0, 11, 458763, 0, 1, 458764, 0, 23, 458765, 0, 23, 458766, 0, 23, 458767, 0, 1, 458768, 0, 24, 458790, -2147483640, 0, 458791, 1, 65550, 458792, 3, 65547, 458793, 3, 65559, 524288, 3, 65548, 524289, 3, 65538, 524290, 0, 65539, 524294, 0, 26, 524295, 0, 196620, 524296, 0, 196631, 524297, 0, 196631, 524298, 0, 196636, 524299, 0, 131095, 524300, 0, 131073, 524301, 0, 131073, 524302, 0, 131084, 524303, 0, 131084, 524304, 0, 65565, 524309, 0, 22, 524310, 0, 23, 524311, 0, 12, 524312, 0, 1, 524313, 0, 1, 524314, 0, 23, 524315, 0, 1, 524316, 0, 1, 524317, 0, 23, 524318, 0, 2, 524326, -2147483640, 0, 524327, 1, 65539, 524328, 3, 65558, 524329, 3, 65537, 589824, 3, 65559, 589825, 3, 65549, 589826, 0, 65539, 589830, 0, 65550, 589831, 3, 22, 589832, 3, 23, 589833, 3, 23, 589834, 3, 1, 589835, 3, 23, 589836, 3, 23, 589837, 3, 12, 589838, 3, 1, 589839, 3, 2, 589840, 0, 65539, 589845, 0, 65562, 589846, 0, 131084, 589847, 0, 131073, 589848, 0, 131073, 589849, 0, 131084, 589850, 0, 131084, 589851, 0, 65542, 589852, 0, 65541, 589853, 0, 131095, 589854, 0, 131085, 589862, -2147483640, 0, 589863, 1, 65550, 589864, 3, 65558, 589865, 3, 65559, 655360, 3, 65537, 655361, 3, 65560, 655362, 0, 65550, 655366, 0, 65539, 655367, 3, 65547, 655368, 3, 65548, 655369, 3, 65559, 655370, 3, 65548, 655371, 3, 65559, 655372, 3, 65559, 655373, 3, 65559, 655374, 3, 65559, 655375, 3, 65538, 655376, 0, 65550, 655381, 0, 65550, 655382, 3, 11, 655383, 3, 23, 655384, 3, 23, 655385, 3, 12, 655386, 3, 13, 655387, 0, 65558, 655388, 0, 65560, 655398, -2147483640, 0, 655399, 1, 65539, 655400, 3, 65536, 655401, 3, 65548, 720896, 3, 65548, 720897, 3, 65560, 720898, 0, 65550, 720902, 0, 65550, 720903, 3, 65558, 720904, 3, 65548, 720905, 3, 65537, 720906, 3, 65548, 720907, 3, 65541, 720908, 3, 131095, 720909, 3, 131084, 720910, 3, 131073, 720911, 3, 131096, 720912, 0, 65550, 720917, 0, 65550, 720918, 3, 131072, 720919, 3, 131095, 720920, 3, 131095, 720921, 3, 131095, 720922, 3, 131085, 720923, 0, 65558, 720924, 0, 65549, 720934, -2147483640, 0, 720935, 1, 65561, 720936, 3, 65536, 720937, 3, 65537, 786432, 3, 65559, 786433, 3, 65538, 786434, 0, 65561, 786438, 0, 65561, 786439, 3, 65547, 786440, 3, 65559, 786441, 3, 65537, 786442, 3, 65537, 786443, 3, 65560, 786444, 0, 4, 786445, 0, 196631, 786446, 0, 196620, 786447, 0, 196620, 786448, 0, 196615, 786453, 0, 196612, 786454, 0, 196631, 786455, 0, 196631, 786456, 0, 196631, 786457, 0, 28, 786458, 0, 23, 786459, 0, 131078, 786460, 0, 65538, 786465, 4, 0, 786466, 4, 0, 786470, -2147483640, 0, 786471, 1, 65539, 786472, 3, 65547, 786473, 3, 65559, 851968, 3, 65537, 851969, 3, 65560, 851970, 0, 65561, 851974, 0, 65550, 851975, 3, 131072, 851976, 3, 131073, 851977, 3, 131073, 851978, 3, 131095, 851979, 3, 131096, 851980, 0, 65539, 851993, 0, 65536, 851994, 0, 65559, 851995, 0, 65537, 851996, 0, 65549, 852001, 4, 0, 852002, 4, 0, 852006, -2147483640, 0, 852007, 1, 65561, 852008, 3, 65536, 852009, 3, 65559, 917504, 3, 65559, 917505, 3, 65549, 917506, 0, 65539, 917510, 0, 131098, 917511, 0, 1, 917512, 0, 23, 917513, 0, 23, 917514, 0, 1, 917515, 0, 23, 917516, 0, 131101, 917529, 0, 131072, 917530, 0, 131084, 917531, 0, 131095, 917532, 0, 131085, 917542, -2147483640, 0, 917543, 1, 65561, 917544, 3, 65547, 917545, 3, 65548, 983040, 3, 65559, 983041, 3, 65560, 983042, 0, 65550, 983046, 0, 131072, 983047, 0, 131095, 983048, 0, 131073, 983049, 0, 131084, 983050, 0, 131084, 983051, 0, 131084, 983052, 0, 131096, 983055, 6, 0, 983058, 4, 0, 983059, 4, 0, 983062, 6, 0, 983078, -2147483640, 0, 983079, 1, 65550, 983080, 3, 65536, 983081, 3, 65537, 1048576, 3, 65548, 1048577, 3, 65560, 1048578, 0, 65561, 1048594, 4, 0, 1048595, 4, 0, 1048614, -2147483640, 0, 1048615, 1, 65550, 1048616, 3, 65536, 1048617, 3, 65559, 1114112, 3, 65537, 1114113, 3, 65560, 1114114, 0, 65550, 1114150, -2147483640, 0, 1114151, 1, 65539, 1114152, 3, 65558, 1114153, 3, 65559, 1179648, 3, 65537, 1179649, 3, 65538, 1179650, 0, 65561, 1179652, 4, 0, 1179653, 4, 0, 1179686, -2147483640, 0, 1179687, 1, 65561, 1179688, 3, 65536, 1179689, 3, 65548, 1245184, 3, 65548, 1245185, 3, 65560, 1245186, 0, 65561, 1245188, 4, 0, 1245189, 4, 0, 1245211, 0, 22, 1245212, 0, 13, 1245222, -2147483640, 0, 1245223, 1, 65539, 1245224, 3, 65536, 1245225, 3, 65537, 1310720, 3, 65559, 1310721, 3, 65560, 1310722, 0, 65561, 1310747, 0, 131072, 1310748, 0, 131074, 1310749, 1, 196609, 1310750, 1, 196609, 1310751, 1, 8, 1310752, 1, 196632, 1310755, 1, 196619, 1310756, 1, 19, 1310757, 1, 196609, 1310758, 1, 196609, 1310759, 1, 196637, 1310760, 3, 65547, 1310761, 3, 65537, 1376256, 3, 65537, 1376257, 3, 65549, 1376258, 0, 65539, 1376263, 0, 3, 1376264, -1610612728, 0, 1376287, 1, 65539, 1376292, 1, 65561, 1376293, 3, 0, 1376294, 3, 1, 1376295, 3, 23, 1376296, 3, 131089, 1376297, 3, 65537, 1441792, 3, 65559, 1441793, 3, 65538, 1441794, 0, 65561, 1441799, 0, 65561, 1441800, -1610612728, 0, 1441820, 4, 0, 1441821, 4, 0, 1441823, 1, 65550, 1441828, 1, 65539, 1441829, 3, 65536, 1441830, 3, 65548, 1441831, 3, 65537, 1441832, 3, 65559, 1441833, 3, 65559, 1507328, 3, 65537, 1507329, 3, 65560, 1507330, 0, 65550, 1507335, 0, 65539, 1507336, -1610612728, 0, 1507356, 4, 0, 1507357, 4, 0, 1507359, 1, 65561, 1507364, 1, 65561, 1507365, 3, 65558, 1507366, 3, 65548, 1507367, 3, 65537, 1507368, 3, 65559, 1507369, 3, 65548, 1572864, 3, 65559, 1572865, 3, 65560, 1572866, 0, 65550, 1572871, 0, 65539, 1572872, -1610612728, 0, 1572874, 6, 0, 1572892, 6, 0, 1572895, 1, 65550, 1572900, 1, 65539, 1572901, 3, 65547, 1572902, 3, 65548, 1572903, 3, 65548, 1572904, 3, 65559, 1572905, 3, 65537, 1638400, 3, 65559, 1638401, 3, 65549, 1638402, 0, 65561, 1638407, 0, 65561, 1638408, -1610612728, 0, 1638431, 1, 65539, 1638436, 1, 65550, 1638437, 3, 65536, 1638438, 3, 65537, 1638439, 3, 65559, 1638440, 3, 65559, 1638441, 3, 65548, 1703936, 3, 65559, 1703937, 3, 65538, 1703938, 0, 65561, 1703943, 0, 65561, 1703944, -1610612728, 0, 1703967, 1, 65561, 1703972, 1, 65539, 1703973, 3, 65558, 1703974, 3, 65559, 1703975, 3, 65548, 1703976, 3, 65559, 1703977, 3, 65559, 1769472, 3, 65548, 1769473, 3, 65538, 1769474, 0, 65561, 1769479, 0, 65561, 1769480, -1610612728, 0, 1769503, 1, 65561, 1769508, 1, 65539, 1769509, 3, 65547, 1769510, 3, 65548, 1769511, 3, 65559, 1769512, 3, 65548, 1769513, 3, 65559, 1835008, 3, 65559, 1835009, 3, 65560, 1835010, 0, 65550, 1835015, 0, 65550, 1835016, -1610612728, 0, 1835039, 1, 65561, 1835044, 1, 65561, 1835045, 3, 65547, 1835046, 3, 65548, 1835047, 3, 65537, 1835048, 3, 65548, 1835049, 3, 65537, 1900544, 3, 65559, 1900545, 3, 65538, 1900546, 0, 65561, 1900551, 0, 131076, 1900552, 0, 23, 1900553, 0, 12, 1900554, 0, 12, 1900555, 0, 12, 1900556, 0, 12, 1900557, 0, 12, 1900558, 0, 23, 1900559, 0, 12, 1900560, 0, 23, 1900561, 0, 2, 1900564, 0, 0, 1900565, 0, 23, 1900566, 0, 12, 1900567, 0, 23, 1900568, 0, 12, 1900569, 0, 1, 1900570, 0, 1, 1900571, 0, 12, 1900572, 0, 1, 1900573, 0, 1, 1900574, 0, 2, 1900575, 1, 196623, 1900576, 1, 196631, 1900577, 1, 196620, 1900578, 1, 196620, 1900579, 1, 196620, 1900580, 1, 196626, 1900581, 3, 65558, 1900582, 3, 65537, 1900583, 3, 65548, 1900584, 3, 65559, 1900585, 3, 65537, 1966080, 3, 65537, 1966081, 3, 65549, 1966082, 0, 65539, 1966087, 0, 131083, 1966088, 0, 131084, 1966089, 0, 131073, 1966090, 0, 131084, 1966091, 0, 131073, 1966092, 0, 131095, 1966093, 0, 131095, 1966094, 0, 131084, 1966095, 0, 131084, 1966096, 0, 131073, 1966097, 0, 131074, 1966100, 0, 131072, 1966101, 0, 131095, 1966102, 0, 131095, 1966103, 0, 131095, 1966104, 0, 131084, 1966105, 0, 131095, 1966106, 0, 131095, 1966107, 0, 131084, 1966108, 0, 131095, 1966109, 0, 131084, 1966110, 0, 196613, 1966111, 0, 196631, 1966112, 0, 196620, 1966113, 0, 196609, 1966114, 0, 196609, 1966115, 0, 196631, 1966116, 0, 29, 1966117, 3, 65536, 1966118, 3, 65559, 1966119, 3, 65559, 1966120, 3, 65548, 1966121, 3, 65559, 2031616, 3, 65559, 2031617, 3, 65538, 2031618, 0, 65539, 2031623, 1, 196608, 2031624, 1, 196609, 2031625, 1, 196631, 2031626, 1, 196609, 2031627, 1, 196620, 2031628, 1, 196631, 2031629, 1, 7, 2031638, 2, 196619, 2031639, 2, 17, 2031640, 2, 23, 2031641, 2, 1, 2031642, 2, 1, 2031643, 2, 23, 2031644, 2, 1, 2031645, 2, 13, 2031652, 0, 65561, 2031653, 3, 65558, 2031654, 3, 65537, 2031655, 3, 65548, 2031656, 3, 65559, 2031657, 3, 65559, 2097152, 3, 65537, 2097153, 3, 65560, 2097154, 0, 65550, 2097165, 1, 65539, 2097175, 2, 131072, 2097176, 2, 65553, 2097177, 2, 65548, 2097178, 2, 65548, 2097179, 2, 65537, 2097180, 2, 65537, 2097181, 2, 65549, 2097183, 4, 0, 2097188, 0, 65539, 2097189, 3, 131072, 2097190, 3, 131073, 2097191, 3, 131073, 2097192, 3, 131084, 2097193, 3, 131095, 2162688, 3, 65548, 2162689, 3, 65538, 2162690, 0, 65550, 2162692, 4, 0, 2162693, 4, 0, 2162701, 1, 65550, 2162712, 2, 65536, 2162713, 2, 65537, 2162714, 2, 65559, 2162715, 2, 65559, 2162716, 2, 65537, 2162717, 2, 65560, 2162718, 4, 0, 2162720, 4, 0, 2162724, 0, 196612, 2162725, 0, 196620, 2162726, 0, 196620, 2162727, 0, 196620, 2162728, 0, 196620, 2162729, 0, 196609, 2228224, 3, 65537, 2228225, 3, 65538, 2228226, 0, 65561, 2228228, 4, 0, 2228229, 4, 0, 2228237, 1, 65539, 2228248, 2, 131094, 2228249, 2, 65564, 2228250, 2, 65548, 2228251, 2, 65559, 2228252, 2, 65541, 2228253, 2, 131074, 2228258, 1, 196608, 2228259, 1, 196620, 2228260, 1, 196609, 2228261, 1, 196620, 2228262, 1, 196631, 2228263, 1, 196631, 2228264, 1, 196620, 2228265, 1, 196620, 2293760, 3, 65537, 2293761, 3, 65538, 2293762, 0, 65561, 2293773, 1, 65539, 2293775, 4, 0, 2293776, 4, 0, 2293782, 6, 0, 2293785, 2, 131094, 2293786, 2, 65553, 2293787, 2, 65541, 2293788, 2, 131074, 2293796, 2, 22, 2293797, 2, 23, 2293798, 2, 1, 2293799, 2, 23, 2293800, 2, 1, 2293801, 2, 12, 2359296, 3, 65559, 2359297, 3, 65538, 2359298, 0, 196612, 2359299, 0, 196620, 2359300, 0, 196620, 2359301, 0, 196620, 2359302, 0, 196620, 2359303, 0, 196631, 2359304, 0, 196631, 2359305, 0, 196620, 2359306, 0, 196609, 2359307, 0, 196631, 2359308, 0, 196609, 2359309, 0, 29, 2359311, 4, 0, 2359312, 4, 0, 2359322, 2, 131083, 2359323, 2, 131096, 2359332, 2, 65558, 2359333, 2, 65548, 2359334, 2, 65537, 2359335, 2, 65559, 2359336, 2, 65537, 2359337, 2, 65559, 2424832, 3, 65537, 2424833, 3, 131099, 2424834, 3, 23, 2424835, 3, 23, 2424836, 3, 1, 2424837, 3, 1, 2424838, 3, 23, 2424839, 3, 12, 2424840, 3, 23, 2424841, 3, 1, 2424842, 3, 23, 2424843, 3, 12, 2424844, 3, 2, 2424845, 0, 65561, 2424868, 2, 131083, 2424869, 2, 65553, 2424870, 2, 65537, 2424871, 2, 65559, 2424872, 2, 65548, 2424873, 2, 65537, 2490368, 3, 65559, 2490369, 3, 65559, 2490370, 3, 65548, 2490371, 3, 65559, 2490372, 3, 65559, 2490373, 3, 65548, 2490374, 3, 65548, 2490375, 3, 65537, 2490376, 3, 65537, 2490377, 3, 65537, 2490378, 3, 65559, 2490379, 3, 65559, 2490380, 3, 65538, 2490381, 0, 65561, 2490402, 6, 0, 2490405, 2, 65558, 2490406, 2, 65548, 2490407, 2, 65537, 2490408, 2, 65559, 2490409, 2, 65548, 2555904, 3, 65559, 2555905, 3, 65548, 2555906, 3, 65537, 2555907, 3, 65537, 2555908, 3, 65537, 2555909, 3, 65559, 2555910, 3, 65559, 2555911, 3, 65559, 2555912, 3, 65548, 2555913, 3, 65559, 2555914, 3, 65537, 2555915, 3, 65559, 2555916, 3, 65538, 2555917, 0, 131076, 2555918, 0, 12, 2555919, 0, 27, 2555920, 0, 196610, 2555925, 0, 196630, 2555926, 0, 29, 2555936, 4, 0, 2555937, 4, 0, 2555941, 2, 131072, 2555942, 2, 65542, 2555943, 2, 65559, 2555944, 2, 65548, 2555945, 2, 65548, 2621440, 3, 65537, 2621441, 3, 65559, 2621442, 3, 65559, 2621443, 3, 65548, 2621444, 3, 65559, 2621445, 3, 65548, 2621446, 3, 65537, 2621447, 3, 65559, 2621448, 3, 65548, 2621449, 3, 65548, 2621450, 3, 65537, 2621451, 3, 65537, 2621452, 3, 65549, 2621453, 0, 131094, 2621454, 0, 131095, 2621455, 0, 131074, 2621456, 1, 65539, 2621461, 1, 65539, 2621462, 0, 65561, 2621472, 4, 0, 2621473, 4, 0, 2621478, 2, 131072, 2621479, 2, 131095, 2621480, 2, 131095, 2621481, 2, 131084, 2686976, 3, 65559, 2686977, 3, 65537, 2686978, 3, 65559, 2686979, 3, 65537, 2686980, 3, 65559, 2686981, 3, 65537, 2686982, 3, 65548, 2686983, 3, 65537, 2686984, 3, 65559, 2686985, 3, 65537, 2686986, 3, 65559, 2686987, 3, 65559, 2686988, 3, 131088, 2686989, 3, 23, 2686990, 3, 1, 2686991, 3, 2, 2686992, 1, 65561, 2686997, 1, 65561, 2686998, 0, 65561, 2687000, 4, 0, 2687001, 4, 0, 2752512, 3, 65537, 2752513, 3, 65559, 2752514, 3, 65548, 2752515, 3, 65537, 2752516, 3, 65548, 2752517, 3, 65548, 2752518, 3, 65537, 2752519, 3, 65548, 2752520, 3, 65548, 2752521, 3, 65537, 2752522, 3, 65548, 2752523, 3, 65559, 2752524, 3, 65537, 2752525, 3, 65548, 2752526, 3, 65559, 2752527, 3, 65560, 2752528, 1, 65561, 2752533, 1, 65561, 2752534, 0, 65539, 2752536, 4, 0, 2752537, 4, 0, 2818048, 3, 65559, 2818049, 3, 65537, 2818050, 3, 65548, 2818051, 3, 65548, 2818052, 3, 65548, 2818053, 3, 65548, 2818054, 3, 65537, 2818055, 3, 65559, 2818056, 3, 65548, 2818057, 3, 65559, 2818058, 3, 65559, 2818059, 3, 65559, 2818060, 3, 65559, 2818061, 3, 65559, 2818062, 3, 65548, 2818063, 3, 65560, 2818064, 1, 65561, 2818069, 1, 65561, 2818070, 0, 65539, 2883584, 3, 65548, 2883585, 3, 65537, 2883586, 3, 65559, 2883587, 3, 65537, 2883588, 3, 65559, 2883589, 3, 65537, 2883590, 3, 65548, 2883591, 3, 65548, 2883592, 3, 65548, 2883593, 3, 65537, 2883594, 3, 65537, 2883595, 3, 65537, 2883596, 3, 65537, 2883597, 3, 65537, 2883598, 3, 65548, 2883599, 3, 65549, 2883600, 1, 196623, 2883601, 1, 196631, 2883602, 1, 196620, 2883603, 1, 196609, 2883604, 1, 196631, 2883605, 1, 196626, 2883606, 0, 65561, 2949120, 3, 65537, 2949121, 3, 65537, 2949122, 3, 65548, 2949123, 3, 65548, 2949124, 3, 65537, 2949125, 3, 65548, 2949126, 3, 65559, 2949127, 3, 65537, 2949128, 3, 65559, 2949129, 3, 65548, 2949130, 3, 65548, 2949131, 3, 65559, 2949132, 3, 65548, 2949133, 3, 65548, 2949134, 3, 65537, 2949135, 3, 131088, 2949136, 3, 12, 2949137, 3, 12, 2949138, 3, 1, 2949139, 3, 12, 2949140, 3, 12, 2949141, 3, 24, 2949142, 0, 65561, 3014656, 3, 65548, 3014657, 3, 65537, 3014658, 3, 65537, 3014659, 3, 65559, 3014660, 3, 65537, 3014661, 3, 65537, 3014662, 3, 65559, 3014663, 3, 65559, 3014664, 3, 65548, 3014665, 3, 65559, 3014666, 3, 65548, 3014667, 3, 65548, 3014668, 3, 65559, 3014669, 3, 65559, 3014670, 3, 65559, 3014671, 3, 65537, 3014672, 3, 65537, 3014673, 3, 65559, 3014674, 3, 65537, 3014675, 3, 65559, 3014676, 3, 65537, 3014677, 3, 65560, 3014678, 0, 65539 )
script = ExtResource( 4 )

[node name="PhaseBlock1" parent="." instance=ExtResource( 5 )]
position = Vector2( 432, 624 )
starting_delay = 8.0
delay_while_on = 5.0
delay_while_off = 3.0

[node name="PhaseBlock2" parent="." instance=ExtResource( 5 )]
position = Vector2( 528, 592 )
starting_delay = 10.0
delay_while_on = 5.0
delay_while_off = 3.0

[node name="PhaseBlock3" parent="." instance=ExtResource( 5 )]
position = Vector2( 480, 720 )
starting_delay = 4.0
delay_while_on = 5.0
delay_while_off = 3.0

[node name="GravityFlipper" parent="." instance=ExtResource( 6 )]
position = Vector2( 304, 672 )

[node name="GravityFlipper2" parent="." instance=ExtResource( 6 )]
position = Vector2( 80, 400.5 )
scale = Vector2( 1, -1 )

[node name="Gate" parent="." instance=ExtResource( 7 )]
position = Vector2( 304, 640 )
rotation = -1.5708

[node name="Gate2" parent="." instance=ExtResource( 7 )]
position = Vector2( 80, 344 )
rotation = -1.5708
indicator_index = 1

[node name="Gate3" parent="." instance=ExtResource( 7 )]
position = Vector2( 444.8, 272 )
indicator_index = 1

[node name="Gate4" parent="." instance=ExtResource( 7 )]
position = Vector2( 256, 80 )
indicator_index = 2

[node name="Switch" parent="." instance=ExtResource( 8 )]
position = Vector2( 560, 544 )

[node name="Switch2" parent="." instance=ExtResource( 8 )]
position = Vector2( 480, 160 )
scale = Vector2( -1, -1 )
indicator_index = 1

[node name="Switch3" parent="." instance=ExtResource( 8 )]
position = Vector2( 176, 576 )
indicator_index = 2

[node name="Orb" parent="." instance=ExtResource( 9 )]
position = Vector2( 544, 394 )

[node name="CameraZone" parent="." instance=ExtResource( 10 )]
position = Vector2( 208, 464 )

[node name="Position2D" type="Position2D" parent="CameraZone"]
position = Vector2( 426, 288 )

[node name="CollisionPolygon2D" type="CollisionPolygon2D" parent="CameraZone"]
position = Vector2( 32, 0 )
polygon = PoolVector2Array( 96, 32, 432, 32, 432, 288, -16, 288, -16, 80, 96, 80 )

[node name="AudioStreamPlayer_BGM" type="AudioStreamPlayer" parent="."]
pause_mode = 2
stream = ExtResource( 11 )
bus = "BGM"
[connection signal="pressed" from="Switch" to="Gate" method="toggle"]
[connection signal="pressed" from="Switch2" to="Gate3" method="toggle"]
[connection signal="pressed" from="Switch2" to="Gate2" method="toggle"]
[connection signal="pressed" from="Switch3" to="Gate4" method="toggle"]
