[gd_scene load_steps=7 format=2]

[ext_resource path="res://scripts/ui/menus/PauseScreen.gd" type="Script" id=1]
[ext_resource path="res://objects/ui/menus/PauseMenu.tscn" type="PackedScene" id=2]
[ext_resource path="res://objects/ui/menus/AudioMenu.tscn" type="PackedScene" id=3]
[ext_resource path="res://objects/ui/menus/ControlsMenu.tscn" type="PackedScene" id=4]
[ext_resource path="res://objects/ui/menus/OptionsMenu.tscn" type="PackedScene" id=5]
[ext_resource path="res://objects/ui/menus/VideoMenu.tscn" type="PackedScene" id=6]

[node name="PauseScreen" type="CanvasLayer"]
pause_mode = 2
layer = 20
script = ExtResource( 1 )

[node name="Darken" type="ColorRect" parent="."]
anchor_right = 1.0
anchor_bottom = 1.0
color = Color( 0, 0, 0, 0.501961 )

[node name="PauseMenu" parent="." instance=ExtResource( 2 )]

[node name="AudioMenu" parent="." instance=ExtResource( 3 )]
visible = false

[node name="ControlsMenu" parent="." instance=ExtResource( 4 )]
visible = false

[node name="OptionsMenu" parent="." instance=ExtResource( 5 )]
visible = false

[node name="VideoMenu" parent="." instance=ExtResource( 6 )]
visible = false

[node name="Tween" type="Tween" parent="."]
