[gd_scene load_steps=3 format=2]

[ext_resource path="res://scripts/ui/Tip.gd" type="Script" id=1]
[ext_resource path="res://fonts/paragraph.tres" type="DynamicFont" id=2]

[node name="Tip" type="CanvasLayer"]
pause_mode = 2
layer = 128
script = ExtResource( 1 )

[node name="HBox" type="HBoxContainer" parent="."]
anchor_left = 0.5
anchor_top = 0.5
anchor_right = 0.5
anchor_bottom = 0.5
margin_left = -490.0
margin_top = -31.5
margin_right = 490.0
margin_bottom = 31.5
custom_constants/separation = 20

[node name="Label1" type="Label" parent="HBox"]
modulate = Color( 1, 1, 1, 0 )
margin_top = 16.0
margin_right = 480.0
margin_bottom = 46.0
rect_min_size = Vector2( 480, 0 )
custom_fonts/font = ExtResource( 2 )
custom_colors/font_color = Color( 0.501961, 0.501961, 0.501961, 1 )
text = "Did you know?"
align = 2

[node name="Label2" type="Label" parent="HBox"]
modulate = Color( 1, 1, 1, 0 )
margin_left = 500.0
margin_top = 16.0
margin_right = 980.0
margin_bottom = 46.0
rect_min_size = Vector2( 480, 0 )
custom_fonts/font = ExtResource( 2 )
custom_colors/font_color = Color( 0.752941, 0.752941, 0.752941, 1 )
text = "Carl's full name is \"Carl\"."

[node name="Tween" type="Tween" parent="."]
